#node1	node2	node1_string_id	node2_string_id	neighborhood_on_chromosome	gene_fusion	phylogenetic_cooccurrence	homology	coexpression	experimentally_determined_interaction	database_annotated	automated_textmining	combined_score
ALOX5AP	LCP2	9606.ENSP00000479870	9606.ENSP00000046794	0	0	0	0	0.573	0	0	0	0.573
ALOX5AP	SRGN	9606.ENSP00000479870	9606.ENSP00000242465	0	0	0	0	0.536	0	0	0.196	0.611
ALOX5AP	SLA	9606.ENSP00000479870	9606.ENSP00000394049	0	0	0	0	0.679	0	0	0	0.679
APBB1IP	LCP2	9606.ENSP00000365411	9606.ENSP00000046794	0	0	0	0	0.386	0	0	0.505	0.683
ARHGDIB	LCP2	9606.ENSP00000228945	9606.ENSP00000046794	0	0	0	0	0.379	0	0	0.124	0.433
ARHGDIB	CORO1A	9606.ENSP00000228945	9606.ENSP00000219150	0	0	0	0	0.417	0	0	0.207	0.518
ARHGDIB	SRGN	9606.ENSP00000228945	9606.ENSP00000242465	0	0	0	0	0.443	0	0	0.433	0.671
ARHGDIB	GMFG	9606.ENSP00000228945	9606.ENSP00000472249	0	0	0	0	0.644	0	0	0.261	0.726
CD48	LCP2	9606.ENSP00000484431	9606.ENSP00000046794	0	0	0	0	0.539	0	0	0.253	0.641
CD48	CORO1A	9606.ENSP00000484431	9606.ENSP00000219150	0	0	0	0	0.365	0	0	0.106	0.408
CD48	SRGN	9606.ENSP00000484431	9606.ENSP00000242465	0	0	0	0	0.348	0	0	0.171	0.437
CD48	HCST	9606.ENSP00000484431	9606.ENSP00000246551	0	0	0	0	0.351	0	0	0.342	0.555
CD48	CD52	9606.ENSP00000484431	9606.ENSP00000363330	0	0	0	0	0.605	0	0	0.374	0.742
CD48	GMFG	9606.ENSP00000484431	9606.ENSP00000472249	0	0	0	0	0.617	0	0	0.070	0.629
CD52	LCP2	9606.ENSP00000363330	9606.ENSP00000046794	0	0	0	0	0.541	0	0	0	0.541
CD52	CORO1A	9606.ENSP00000363330	9606.ENSP00000219150	0	0	0	0	0.533	0	0	0.102	0.563
CD52	HCST	9606.ENSP00000363330	9606.ENSP00000246551	0	0	0	0	0.554	0	0	0.113	0.587
CD52	GMFG	9606.ENSP00000363330	9606.ENSP00000472249	0	0	0	0	0.672	0	0	0	0.672
CORO1A	LCP2	9606.ENSP00000219150	9606.ENSP00000046794	0	0	0	0	0.362	0	0	0.112	0.409
CORO1A	GMFG	9606.ENSP00000219150	9606.ENSP00000472249	0	0	0	0	0.275	0.078	0	0.284	0.480
GMFG	LCP2	9606.ENSP00000472249	9606.ENSP00000046794	0	0	0	0	0.568	0	0	0.100	0.595
GMFG	SRGN	9606.ENSP00000472249	9606.ENSP00000242465	0	0	0	0	0.565	0	0	0.104	0.594
HCST	LCP2	9606.ENSP00000246551	9606.ENSP00000046794	0	0	0	0	0.347	0	0	0.430	0.612
HCST	SLA	9606.ENSP00000246551	9606.ENSP00000394049	0	0	0	0	0.431	0	0	0	0.431
LCP2	SLA	9606.ENSP00000046794	9606.ENSP00000394049	0	0	0	0	0.555	0	0	0.123	0.593
LCP2	SRGN	9606.ENSP00000046794	9606.ENSP00000242465	0	0	0	0	0.589	0	0	0.057	0.596
