Gene	Cytoband	(B) Stage IA	(G) Stage IIIB	(B) Stage IA	(G) Stage IIIB	Log Ratio	p-Value	q-Value	Higher expression in
OPRK1	8q11.23	3.29	0.07	2.69	0.20	3.22	2.34e-10	4.578e-6	(B) Stage IA
MUSK	9q31.3	2.15	0.33	1.49	0.40	1.83	5.10e-9	3.334e-5	(B) Stage IA
CA10	17q21.33-q22	3.30	0.06	3.25	0.17	3.24	2.43e-8	1.193e-4	(B) Stage IA
RSPO1	1p34.3	3.32	1.03	1.40	0.70	2.29	1.65e-7	6.461e-4	(B) Stage IA
GPC3	Xq26.2	8.84	6.20	1.79	0.86	2.64	4.45e-7	1.455e-3	(B) Stage IA
FCMR	1q32.1	8.41	6.66	1.09	0.60	1.75	1.255e-6	3.515e-3	(B) Stage IA
PGM5-AS1	9q21.11	0.89	0.07	0.91	0.21	0.82	1.686e-6	3.976e-3	(B) Stage IA
CAPNS2	16q12.2	2.27	0.69	1.72	0.45	1.58	2.381e-6	3.976e-3	(B) Stage IA
TNFSF10	3q26	11.27	10.30	1.10	0.26	0.98	2.433e-6	3.976e-3	(B) Stage IA
ARHGDIG	16p13.3	0.83	0.03	1.00	0.09	0.80	2.519e-6	3.976e-3	(B) Stage IA
RBM19	12q24.13-q24.21	9.00	9.50	0.39	0.18	-0.50	2.544e-6	3.976e-3	(G) Stage IIIB
MRPL3	3q22.1	10.79	11.33	0.51	0.19	-0.54	3.160e-6	4.425e-3	(G) Stage IIIB
NRXN1	2p16.3	1.78	0.44	1.30	0.48	1.35	4.921e-6	5.359e-3	(B) Stage IA
ADH1A	4q23	3.40	1.02	1.56	0.93	2.38	7.629e-6	7.871e-3	(B) Stage IA
CNTFR	9p13.3	2.47	0.73	1.65	0.66	1.74	9.466e-6	8.725e-3	(B) Stage IA
DPYS	8q22.3	2.16	0.73	1.24	0.56	1.43	9.544e-6	8.725e-3	(B) Stage IA
PTK2B	8p21.2	10.05	9.12	0.64	0.37	0.93	9.792e-6	8.725e-3	(B) Stage IA
COL19A1	6q13	2.00	0.61	1.32	0.55	1.39	1.484e-5	0.0127	(B) Stage IA
IL17REL	22q13.33	2.65	0.73	1.60	0.79	1.91	1.678e-5	0.0137	(B) Stage IA
C22ORF31	22q12.1	1.39	0.28	1.11	0.45	1.11	1.965e-5	0.0147	(B) Stage IA
PRRT3	3p25.3	6.90	5.41	1.02	0.63	1.49	2.022e-5	0.0147	(B) Stage IA
C21ORF91	21q21.1	8.61	7.62	0.85	0.42	0.99	2.268e-5	0.0159	(B) Stage IA
SLC6A4	17q11.2	3.38	1.28	2.52	0.77	2.10	3.160e-5	0.0199	(B) Stage IA
DIO3OS	14q32.31	1.09	0.19	1.13	0.31	0.90	3.250e-5	0.0199	(B) Stage IA
DAO	12q24.11	0.54	0.07	0.63	0.14	0.47	3.665e-5	0.0218	(B) Stage IA
CHRNA2	8p21.2	1.12	0.21	1.24	0.26	0.90	4.608e-5	0.0263	(B) Stage IA
GRIA1	5q33.2	4.35	1.64	1.99	1.23	2.71	4.698e-5	0.0263	(B) Stage IA
KMT5A	12q24.31	9.39	9.84	0.43	0.20	-0.45	5.007e-5	0.0268	(G) Stage IIIB
ZNF831	20q13.32	5.73	4.33	1.49	0.61	1.40	5.358e-5	0.0275	(B) Stage IA
CTXN2	15q21.1	0.64	0.06	0.80	0.18	0.58	5.477e-5	0.0275	(B) Stage IA
CYP4A22	1p33	0.51	0.03	0.70	0.09	0.48	5.697e-5	0.0277	(B) Stage IA
GBA3	4p15.2	2.11	0.61	1.87	0.57	1.49	5.792e-5	0.0277	(B) Stage IA
CNKSR2	Xp22.12	3.17	1.18	1.71	0.92	1.98	6.211e-5	0.0278	(B) Stage IA
ABCC12	16q12.1	0.92	0.13	1.02	0.29	0.79	6.213e-5	0.0278	(B) Stage IA
APBB1	11p15.4	8.96	7.31	0.81	0.74	1.65	6.237e-5	0.0278	(B) Stage IA
ITGAD	16p11.2	2.38	0.79	1.48	0.74	1.60	6.564e-5	0.0282	(B) Stage IA
CCKBR	11p15.4	1.06	0.15	1.17	0.34	0.91	6.753e-5	0.0282	(B) Stage IA
ITLN2	1q23.3	2.31	0.73	2.13	0.56	1.59	6.935e-5	0.0282	(B) Stage IA
FCRL3	1q23.1	5.07	3.24	1.81	0.84	1.83	7.057e-5	0.0282	(B) Stage IA
TTR	18q12.1	1.75	0.19	2.34	0.37	1.57	8.134e-5	0.0316	(B) Stage IA
RIPOR2	6p22.3	8.41	6.47	1.24	0.92	1.95	8.223e-5	0.0316	(B) Stage IA
CEACAM6	19q13.2	15.57	12.00	1.14	1.60	3.57	9.221e-5	0.0345	(B) Stage IA
MIA	19q13.2	2.64	0.85	1.90	0.82	1.79	9.319e-5	0.0345	(B) Stage IA
FGF17	8p21.3	1.35	0.46	1.05	0.38	0.88	9.604e-5	0.0348	(B) Stage IA
RTP1	3q27.3	0.74	0.10	0.94	0.20	0.64	9.785e-5	0.0348	(B) Stage IA
TRIM63	1p36.11	1.73	0.36	1.44	0.64	1.37	9.947e-5	0.0348	(B) Stage IA
CD22	19q13.12	7.22	5.16	1.53	1.01	2.07	1.024e-4	0.0352	(B) Stage IA
KRT3	12q13.13	1.27	0.23	1.48	0.35	1.04	1.048e-4	0.0353	(B) Stage IA
YARS1	1p35.1	11.16	11.70	0.36	0.27	-0.54	1.078e-4	0.0353	(G) Stage IIIB
ANKRD55	5q11.2	2.86	1.56	1.09	0.63	1.29	1.080e-4	0.0353	(B) Stage IA
MYOC	1q24.3	1.73	0.46	1.23	0.61	1.27	1.099e-4	0.0353	(B) Stage IA
CTBP2	10q26.13	10.71	11.25	0.31	0.26	-0.54	1.132e-4	0.0358	(G) Stage IIIB
RASGRF1	15q25.1	7.70	4.95	1.80	1.38	2.75	1.358e-4	0.0415	(B) Stage IA
ASRGL1	11q12.3	8.73	6.73	1.77	1.00	1.99	1.390e-4	0.0415	(B) Stage IA
CNTN2	1q32.1	2.16	0.62	1.44	0.77	1.54	1.397e-4	0.0415	(B) Stage IA
RAB39B	Xq28	4.94	3.86	1.13	0.53	1.09	1.435e-4	0.0418	(B) Stage IA
BEND4	4p13	3.06	1.61	1.42	0.72	1.45	1.449e-4	0.0418	(B) Stage IA
NPY5R	4q32.2	1.13	0.17	1.42	0.33	0.97	1.551e-4	0.0434	(B) Stage IA
IGSF10	3q25.1	6.73	4.58	1.61	1.11	2.16	1.767e-4	0.0472	(B) Stage IA
CXCR5	11q23.3	5.66	3.69	1.70	1.01	1.97	1.785e-4	0.0472	(B) Stage IA
CADM3	1q23.2	6.17	3.89	1.65	1.19	2.29	1.894e-4	0.0489	(B) Stage IA
