Gene	Cytoband	(C) Stage IB	(G) Stage IIIB	(C) Stage IB	(G) Stage IIIB	Log Ratio	p-Value	q-Value	Higher expression in
OPRK1	8q11.23	2.47	0.07	2.35	0.20	2.40	6.02e-12	1.18e-7	(C) Stage IB
ARHGDIG	16p13.3	1.26	0.03	1.41	0.09	1.23	9.17e-10	9.024e-6	(C) Stage IB
CA10	17q21.33-q22	2.43	0.06	3.04	0.17	2.38	1.66e-8	1.092e-4	(C) Stage IB
RBM19	12q24.13-q24.21	8.93	9.50	0.44	0.18	-0.57	2.34e-7	7.676e-4	(G) Stage IIIB
SMIM24	19p13.3	3.81	1.64	2.89	0.63	2.17	1.816e-6	2.980e-3	(C) Stage IB
DAO	12q24.11	0.50	0.07	0.59	0.14	0.43	4.370e-6	6.619e-3	(C) Stage IB
OTP	5q14.1	0.45	0.04	0.61	0.11	0.41	5.264e-6	7.404e-3	(C) Stage IB
MIA	19q13.2	3.16	0.85	3.07	0.82	2.32	8.772e-6	0.0102	(C) Stage IB
DIO3OS	14q32.31	1.01	0.19	1.04	0.31	0.82	1.238e-5	0.0135	(C) Stage IB
CCKBR	11p15.4	1.26	0.15	1.70	0.34	1.11	1.362e-5	0.0141	(C) Stage IB
DPYS	8q22.3	2.08	0.73	1.45	0.56	1.35	1.719e-5	0.0165	(C) Stage IB
PPP1R17	7p14.3	0.61	0.09	0.73	0.19	0.52	1.817e-5	0.0165	(C) Stage IB
RTP1	3q27.3	0.68	0.10	0.89	0.20	0.58	1.987e-5	0.0170	(C) Stage IB
UGT1A10	2q37.1	2.05	0.13	3.36	0.40	1.92	2.653e-5	0.0218	(C) Stage IB
KMT5A	12q24.31	9.37	9.84	0.49	0.20	-0.46	2.812e-5	0.0222	(G) Stage IIIB
B3GALT5-AS1	21q22.2	1.58	0.23	2.22	0.41	1.35	3.124e-5	0.0237	(C) Stage IB
MRPL3	3q22.1	10.90	11.33	0.49	0.19	-0.43	3.904e-5	0.0271	(G) Stage IIIB
PCDH8	13q14.3	1.16	0.06	2.02	0.18	1.10	4.187e-5	0.0275	(C) Stage IB
UGT2A1	4q13.3	0.96	0.07	1.59	0.21	0.89	4.492e-5	0.0285	(C) Stage IB
C21ORF91	21q21.1	8.54	7.62	0.76	0.42	0.91	5.253e-5	0.0304	(C) Stage IB
GPC3	Xq26.2	8.02	6.20	1.78	0.86	1.82	6.524e-5	0.0348	(C) Stage IB
TNFSF10	3q26	11.01	10.30	1.16	0.26	0.71	6.538e-5	0.0348	(C) Stage IB
RSPO1	1p34.3	2.50	1.03	1.46	0.70	1.47	7.274e-5	0.0371	(C) Stage IB
PRRT3	3p25.3	6.74	5.41	1.08	0.63	1.33	7.350e-5	0.0371	(C) Stage IB
TTR	18q12.1	1.49	0.19	2.38	0.37	1.30	9.216e-5	0.0450	(C) Stage IB
MUSK	9q31.3	1.18	0.33	1.14	0.40	0.86	1.015e-4	0.0450	(C) Stage IB
MPPED1	22q13.2	0.32	0.03	0.51	0.09	0.29	1.025e-4	0.0450	(C) Stage IB
NRXN1	2p16.3	1.45	0.44	1.33	0.48	1.02	1.099e-4	0.0457	(C) Stage IB
LHFPL7	22q11.23	0.66	0.06	1.13	0.17	0.60	1.115e-4	0.0457	(C) Stage IB
