Gene	Cytoband	(E) Stage IIB	(I) Stage IV	(E) Stage IIB	(I) Stage IV	Log Ratio	p-Value	q-Value	Higher expression in
PHF2P1	13q11	0.65	6.68	1.89	0.08	-6.04	4.23e-17	8.26e-13	(I) Stage IV
UBE2D4	7p13	8.22	7.44	0.30	0.02	0.78	3.42e-14	1.80e-10	(E) Stage IIB
LINC00442	13q12.11	0.02	0.41	0.09	0.01	-0.39	3.50e-14	1.80e-10	(I) Stage IV
WSB2	12q24.23	10.82	11.80	0.39	0.02	-0.98	3.69e-14	1.80e-10	(I) Stage IV
TRIM16L	17p11.2	7.06	8.71	0.70	0.00	-1.65	1.41e-13	4.72e-10	(I) Stage IV
TEX19	17q25.3	2.17	6.11	1.67	0.09	-3.95	1.45e-13	4.72e-10	(I) Stage IV
ARFRP1	20q13.33	8.86	10.14	0.59	0.04	-1.28	2.46e-12	6.87e-9	(I) Stage IV
NCK2	2q12.2	9.71	8.59	0.53	0.04	1.13	5.06e-12	1.23e-8	(E) Stage IIB
KPNA2	17q24.2	11.97	13.64	0.87	0.03	-1.67	1.93e-11	4.18e-8	(I) Stage IV
ATP1B1	1q24.2	11.98	9.98	1.07	0.03	2.01	3.40e-11	6.37e-8	(E) Stage IIB
RBBP5	1q32.1	9.65	10.66	0.54	0.02	-1.01	3.79e-11	6.37e-8	(I) Stage IV
TBCD	17q25.3	10.75	11.92	0.62	0.03	-1.17	3.92e-11	6.37e-8	(I) Stage IV
STK31	7p15.3	2.40	5.71	1.79	0.03	-3.31	4.52e-11	6.78e-8	(I) Stage IV
COQ10A	12q13.3	6.45	7.66	0.66	0.02	-1.21	5.65e-11	7.88e-8	(I) Stage IV
GPKOW	Xp11.23	8.92	9.66	0.41	0.00	-0.74	7.87e-11	1.02e-7	(I) Stage IV
MYOCD	17p12	2.83	0.98	1.03	0.02	1.85	8.42e-11	1.03e-7	(E) Stage IIB
ATP6V0D1	16q22.1	10.93	11.85	0.51	0.00	-0.91	1.14e-10	1.31e-7	(I) Stage IV
SLC11A1	2q35	6.14	7.79	0.82	0.08	-1.64	1.40e-10	1.52e-7	(I) Stage IV
NOL11	17q24.2	10.61	12.19	0.92	0.04	-1.57	3.17e-10	3.20e-7	(I) Stage IV
TIPARP-AS1	3q25.31	2.49	1.20	0.76	0.02	1.29	3.28e-10	3.20e-7	(E) Stage IIB
GCNT7	20q13.31	0.65	1.56	0.54	0.03	-0.91	4.75e-10	4.42e-7	(I) Stage IV
SDHAF1	19q13.12	7.45	8.38	0.51	0.04	-0.92	5.70e-10	4.91e-7	(I) Stage IV
LSM14B	20q13.33	10.27	11.14	0.48	0.04	-0.87	5.79e-10	4.91e-7	(I) Stage IV
ANKRD45	1q25.1	2.44	0.41	1.23	0.01	2.04	6.04e-10	4.91e-7	(E) Stage IIB
XRCC5	2q35	13.14	12.55	0.35	0.02	0.59	6.84e-10	5.34e-7	(E) Stage IIB
NFS1	20q11.22	9.22	10.11	0.55	0.01	-0.89	8.38e-10	6.29e-7	(I) Stage IV
C16ORF87	16q11.2	7.19	8.16	0.53	0.05	-0.97	8.78e-10	6.35e-7	(I) Stage IV
PNKD	2q35	10.54	9.08	0.90	0.03	1.46	9.89e-10	6.89e-7	(E) Stage IIB
CACFD1	9q34.2	10.14	11.11	0.61	0.03	-0.97	1.48e-9	9.96e-7	(I) Stage IV
ASS1	9q34.11	10.00	6.75	2.08	0.02	3.25	2.05e-9	1.299e-6	(E) Stage IIB
COL14A1	8q24.12	10.27	8.13	1.36	0.07	2.14	2.06e-9	1.299e-6	(E) Stage IIB
SATL1	Xq21.1	5.08	5.84	0.48	0.03	-0.76	2.95e-9	1.746e-6	(I) Stage IV
FARSB	2q36.1	10.23	9.64	0.38	0.00	0.59	2.95e-9	1.746e-6	(E) Stage IIB
TIGD1	2q37.1	6.94	5.65	0.83	0.04	1.29	3.10e-9	1.781e-6	(E) Stage IIB
SRBD1	2p21	9.21	8.52	0.41	0.04	0.69	3.35e-9	1.865e-6	(E) Stage IIB
CASQ2	1p13.1	4.36	2.47	1.24	0.04	1.89	3.55e-9	1.923e-6	(E) Stage IIB
ILF3	19p13.2	12.30	11.90	0.26	0.00	0.39	3.76e-9	1.982e-6	(E) Stage IIB
GPR88	1p21.2	2.24	0.41	1.21	0.01	1.83	4.02e-9	2.013e-6	(E) Stage IIB
SSR4P1	21q22.3	4.88	3.57	0.79	0.07	1.31	4.02e-9	2.013e-6	(E) Stage IIB
ZNFX1	20q13.13	11.09	12.15	0.70	0.01	-1.05	4.44e-9	2.168e-6	(I) Stage IV
DHX37	12q24.31	8.89	9.64	0.46	0.04	-0.75	4.62e-9	2.198e-6	(I) Stage IV
MRPS25	3p25.1	9.39	10.38	0.63	0.05	-1.00	5.59e-9	2.599e-6	(I) Stage IV
GARNL3	9q33.3	6.88	5.08	1.20	0.06	1.80	5.78e-9	2.624e-6	(E) Stage IIB
MBOAT1	6p22.3	9.59	7.79	1.20	0.07	1.80	6.01e-9	2.634e-6	(E) Stage IIB
FOS	14q24.3	11.20	8.59	1.74	0.10	2.61	6.17e-9	2.634e-6	(E) Stage IIB
BAGE	21p11.1	0.48	2.85	1.20	0.14	-2.37	6.21e-9	2.634e-6	(I) Stage IV
GHITM	10q23.1	12.09	12.74	0.45	0.01	-0.66	6.69e-9	2.778e-6	(I) Stage IV
SCUBE3	6p21.3	6.33	10.68	1.94	0.25	-4.35	7.13e-9	2.878e-6	(I) Stage IV
ATP11C	Xq27.1	9.01	7.67	0.84	0.07	1.34	7.23e-9	2.878e-6	(E) Stage IIB
TRIM25	17q22	10.06	11.03	0.62	0.05	-0.98	8.54e-9	3.328e-6	(I) Stage IV
ABCC5	3q27.1	10.57	12.17	1.10	0.02	-1.60	8.70e-9	3.328e-6	(I) Stage IV
IL17REL	22q13.33	2.50	5.38	2.00	0.08	-2.88	1.08e-8	3.981e-6	(I) Stage IV
ADH1C	4q23	4.46	0.85	2.43	0.16	3.60	1.08e-8	3.981e-6	(E) Stage IIB
ELAVL1	19p13.2	11.00	10.63	0.26	0.01	0.37	1.13e-8	4.087e-6	(E) Stage IIB
NEDD9	6p24.2	10.03	8.18	0.75	0.11	1.85	1.29e-8	4.569e-6	(E) Stage IIB
NIBAN2	9q34.11	12.04	12.77	0.50	0.03	-0.73	1.33e-8	4.634e-6	(I) Stage IV
GARIN6	12q23.1	0.23	0.72	0.34	0.02	-0.49	1.52e-8	5.197e-6	(I) Stage IV
CCN1	1p22.3	11.32	9.55	1.24	0.08	1.77	2.02e-8	6.792e-6	(E) Stage IIB
TAS2R13	12p13	0.23	0.72	0.35	0.02	-0.49	2.38e-8	7.704e-6	(I) Stage IV
SPDYC	11q13.1	2.44	7.07	3.35	0.03	-4.62	2.43e-8	7.704e-6	(I) Stage IV
GCN1	12q24.23	11.51	12.17	0.47	0.02	-0.66	2.44e-8	7.704e-6	(I) Stage IV
TMEM39A	3q13.33	9.21	8.62	0.43	0.01	0.59	2.45e-8	7.704e-6	(E) Stage IIB
MAN1B1	9q34.3	10.94	11.63	0.48	0.04	-0.69	3.08e-8	9.553e-6	(I) Stage IV
EBF3	10q26.3	5.55	4.04	1.11	0.02	1.51	3.23e-8	9.744e-6	(E) Stage IIB
CPAMD8	19p13.11	6.93	4.72	1.58	0.11	2.21	3.81e-8	1.128e-5	(E) Stage IIB
C10ORF62	10q24.2	0.21	0.72	0.38	0.02	-0.51	4.04e-8	1.177e-5	(I) Stage IV
RBKS	2p23.2	6.74	7.66	0.68	0.03	-0.92	4.13e-8	1.185e-5	(I) Stage IV
SERBP1	1p31.3	12.54	12.08	0.34	0.02	0.47	4.22e-8	1.194e-5	(E) Stage IIB
ECE1	1p36.12	12.29	11.48	0.60	0.03	0.81	4.54e-8	1.265e-5	(E) Stage IIB
FNIP1	5q31.1	9.82	10.70	0.66	0.02	-0.88	4.73e-8	1.299e-5	(I) Stage IV
CNGA3	2q11.2	2.04	4.08	1.42	0.12	-2.05	4.85e-8	1.314e-5	(I) Stage IV
C6ORF47	6p21.33	9.33	10.13	0.46	0.05	-0.80	5.26e-8	1.406e-5	(I) Stage IV
PRKX	Xp22.33	8.68	7.48	0.90	0.04	1.20	5.53e-8	1.458e-5	(E) Stage IIB
DAZAP2	12q13.13	12.58	13.05	0.35	0.00	-0.47	6.21e-8	1.616e-5	(I) Stage IV
P4HA1	10q22.1	10.85	11.92	0.82	0.03	-1.07	7.62e-8	1.955e-5	(I) Stage IV
MID1	Xp22	7.53	5.40	1.35	0.15	2.14	7.92e-8	2.007e-5	(E) Stage IIB
TMEM108	3q22.1	4.93	3.17	1.36	0.00	1.77	8.08e-8	2.022e-5	(E) Stage IIB
CYB561D1	1p13.3	7.63	8.81	0.91	0.01	-1.18	8.26e-8	2.040e-5	(I) Stage IV
PRSS30P	16p13.3	1.69	3.11	1.05	0.08	-1.42	8.46e-8	2.059e-5	(I) Stage IV
MRPL53	2p13.1	8.95	9.61	0.51	0.02	-0.66	8.55e-8	2.059e-5	(I) Stage IV
USP17L2	8p23.1	0.11	0.41	0.23	0.01	-0.30	9.67e-8	2.300e-5	(I) Stage IV
ETS2	21q22.2	9.72	8.43	0.77	0.09	1.29	9.80e-8	2.303e-5	(E) Stage IIB
LOC646999	7p14.1	4.43	2.67	1.18	0.12	1.77	1.04e-7	2.406e-5	(E) Stage IIB
TAS1R3	1p36.33	3.62	5.69	1.62	0.03	-2.07	1.07e-7	2.464e-5	(I) Stage IV
CLEC9A	12p13.2	2.11	0.41	1.33	0.01	1.70	1.11e-7	2.513e-5	(E) Stage IIB
PYCR2	1q42.12	10.54	11.33	0.46	0.06	-0.79	1.12e-7	2.513e-5	(I) Stage IV
ULK1	12q24.33	10.56	11.38	0.57	0.05	-0.82	1.14e-7	2.513e-5	(I) Stage IV
PTK6	20q13.33	8.33	9.88	1.22	0.03	-1.55	1.21e-7	2.616e-5	(I) Stage IV
CDC42EP3	2p22.2	8.70	7.44	0.98	0.06	1.27	1.23e-7	2.629e-5	(E) Stage IIB
DENND1A	9q33.3	9.13	9.81	0.38	0.05	-0.68	1.34e-7	2.815e-5	(I) Stage IV
SAMD10	20q13.33	7.35	8.22	0.68	0.04	-0.87	1.38e-7	2.858e-5	(I) Stage IV
LINC01106	2q13	4.72	3.19	1.04	0.11	1.53	1.50e-7	3.083e-5	(E) Stage IIB
HCAR1	12q24.31	8.23	10.07	1.47	0.05	-1.84	1.55e-7	3.150e-5	(I) Stage IV
ZPLD1	3q12.3	2.59	4.79	1.64	0.14	-2.20	1.57e-7	3.160e-5	(I) Stage IV
RPS25	11q23.3	12.52	11.89	0.49	0.03	0.63	1.59e-7	3.168e-5	(E) Stage IIB
CSTF1	20q13.2-q13.31	9.84	10.47	0.51	0.00	-0.63	1.61e-7	3.175e-5	(I) Stage IV
ALOX12P2	17p13.1	2.41	6.37	2.28	0.29	-3.96	1.69e-7	3.270e-5	(I) Stage IV
PPP2R5C	14q32.31	11.14	10.71	0.33	0.02	0.43	1.69e-7	3.270e-5	(E) Stage IIB
MAP2K6	17q24.3	6.56	4.81	1.42	0.03	1.75	1.95e-7	3.686e-5	(E) Stage IIB
CCNB1IP1	14q11.2	8.68	7.95	0.58	0.04	0.73	2.00e-7	3.756e-5	(E) Stage IIB
NMB	15q25.2	5.88	4.74	0.92	0.03	1.14	2.07e-7	3.855e-5	(E) Stage IIB
SPATA25	20q13.12	1.66	2.74	0.88	0.01	-1.08	2.23e-7	4.098e-5	(I) Stage IV
SNX17	2p23.3	11.20	11.63	0.34	0.03	-0.44	2.31e-7	4.208e-5	(I) Stage IV
PROB1	5q31.2	4.91	6.08	0.96	0.04	-1.17	2.57e-7	4.606e-5	(I) Stage IV
ARMC10	7q22.1	9.65	9.22	0.35	0.01	0.43	2.63e-7	4.635e-5	(E) Stage IIB
LGR4	11p14.1	9.46	7.53	1.26	0.14	1.93	2.64e-7	4.635e-5	(E) Stage IIB
SIRT4	12q24.31	4.36	5.14	0.62	0.04	-0.78	2.66e-7	4.635e-5	(I) Stage IV
RPS8	1p34.1	13.83	13.11	0.56	0.05	0.72	2.89e-7	4.977e-5	(E) Stage IIB
NCOA7	6q22.31-q22.32	9.86	8.44	1.17	0.01	1.42	2.91e-7	4.977e-5	(E) Stage IIB
LDB3	10q23.2	4.16	2.94	0.83	0.09	1.22	3.13e-7	5.311e-5	(E) Stage IIB
ST6GALNAC1	17q25.1	4.50	1.39	2.60	0.03	3.11	3.69e-7	6.153e-5	(E) Stage IIB
CROT	7q21.12	9.18	7.70	1.24	0.04	1.48	3.92e-7	6.477e-5	(E) Stage IIB
CACNG1	17q24.2	3.92	6.66	2.32	0.01	-2.74	4.23e-7	6.941e-5	(I) Stage IV
BRD4	19p13.12	10.70	10.11	0.50	0.03	0.60	4.31e-7	6.950e-5	(E) Stage IIB
EXOC3-AS1	5p15.33	6.42	5.53	0.76	0.01	0.90	4.58e-7	7.253e-5	(E) Stage IIB
EID3	12q23.3	4.11	3.06	0.89	0.00	1.05	4.61e-7	7.253e-5	(E) Stage IIB
LHFPL1	Xq23	2.77	1.30	1.10	0.11	1.47	5.04e-7	7.760e-5	(E) Stage IIB
CTTNBP2NL	1p13.2	9.58	8.99	0.48	0.04	0.60	5.05e-7	7.760e-5	(E) Stage IIB
PSMA7	20q13.33	11.62	12.62	0.64	0.08	-1.00	5.11e-7	7.784e-5	(I) Stage IV
NAP1L6P	Xq13.2	1.79	3.87	1.65	0.14	-2.07	5.44e-7	8.233e-5	(I) Stage IV
TUBA3FP	22q11.21	1.57	0.56	0.83	0.06	1.01	5.54e-7	8.248e-5	(E) Stage IIB
NR1D1	17q21.1	9.75	11.25	1.16	0.11	-1.50	5.66e-7	8.363e-5	(I) Stage IV
SLC31A1	9q32	10.81	10.06	0.63	0.04	0.75	5.79e-7	8.495e-5	(E) Stage IIB
SLC29A1	6p21.1	10.97	11.94	0.79	0.06	-0.98	5.83e-7	8.495e-5	(I) Stage IV
PHYKPL	5q35.3	7.90	8.81	0.78	0.02	-0.90	6.18e-7	8.936e-5	(I) Stage IV
AHSP	16p11.2	0.13	0.41	0.23	0.01	-0.27	6.37e-7	9.098e-5	(I) Stage IV
SWAP70	11p15.4	10.73	9.96	0.65	0.04	0.77	6.39e-7	9.098e-5	(E) Stage IIB
KIF27	9q21.32	6.56	5.48	0.83	0.08	1.08	6.54e-7	9.242e-5	(E) Stage IIB
FKBP1A	20p13	12.11	11.58	0.46	0.00	0.52	7.38e-7	1.028e-4	(E) Stage IIB
ANKRD55	5q11.2	1.88	0.72	1.01	0.02	1.16	7.55e-7	1.045e-4	(E) Stage IIB
CFAP92	3q21.3	5.37	7.16	1.54	0.09	-1.79	8.06e-7	1.107e-4	(I) Stage IV
COMMD2	3q25.1	9.51	8.87	0.56	0.02	0.64	9.09e-7	1.240e-4	(E) Stage IIB
MDM4	1q32.1	9.85	10.85	0.86	0.05	-1.00	9.22e-7	1.243e-4	(I) Stage IV
HS6ST3	13q32.1	7.31	10.37	2.58	0.19	-3.06	9.24e-7	1.243e-4	(I) Stage IV
PGAP1	2q33.1	8.15	7.16	0.82	0.07	0.99	9.36e-7	1.250e-4	(E) Stage IIB
EEFSEC	3q21.3	8.41	9.07	0.59	0.00	-0.66	9.87e-7	1.310e-4	(I) Stage IV
CHRDL2	11q13.4	1.97	0.41	1.39	0.01	1.57	9.98e-7	1.316e-4	(E) Stage IIB
RACGAP1P1	12q12	1.97	3.00	0.81	0.08	-1.03	1.022e-6	1.339e-4	(I) Stage IV
OMP	11q13.5	0.09	0.41	0.28	0.01	-0.32	1.045e-6	1.359e-4	(I) Stage IV
HSP90AB2P	4p15.33	5.68	6.77	0.97	0.01	-1.09	1.071e-6	1.384e-4	(I) Stage IV
FNDC5	1p35.1	4.41	3.38	0.91	0.04	1.02	1.119e-6	1.427e-4	(E) Stage IIB
PGBD3	10q11	6.41	6.96	0.49	0.02	-0.55	1.151e-6	1.458e-4	(I) Stage IV
SERINC3	20q13.12	11.30	12.10	0.66	0.06	-0.80	1.170e-6	1.473e-4	(I) Stage IV
SPINK13	5q32	0.11	0.41	0.27	0.01	-0.30	1.191e-6	1.481e-4	(I) Stage IV
PUM1	1p35.2	11.11	10.78	0.29	0.01	0.33	1.208e-6	1.492e-4	(E) Stage IIB
ZNF654	3p11.1	8.56	9.44	0.53	0.07	-0.88	1.257e-6	1.540e-4	(I) Stage IV
DCAF8L1	Xp21.3	0.19	0.72	0.48	0.02	-0.53	1.263e-6	1.540e-4	(I) Stage IV
POLE	12q24.33	10.01	10.59	0.52	0.02	-0.58	1.302e-6	1.559e-4	(I) Stage IV
SORBS2	4q35.1	8.85	7.21	1.48	0.03	1.64	1.303e-6	1.559e-4	(E) Stage IIB
MBNL1	3q25.1-q25.2	11.11	10.52	0.53	0.01	0.58	1.365e-6	1.624e-4	(E) Stage IIB
FOSB	19q13.32	8.35	5.41	2.20	0.25	2.94	1.409e-6	1.666e-4	(E) Stage IIB
RPL36A	Xq22.1	6.22	4.99	1.01	0.09	1.23	1.459e-6	1.715e-4	(E) Stage IIB
GSTA2	6p12.2	1.38	5.77	1.32	0.25	-4.39	1.490e-6	1.741e-4	(I) Stage IV
BPTF	17q24.2	11.31	12.73	0.92	0.12	-1.41	1.542e-6	1.790e-4	(I) Stage IV
PDE7B	6q23.3	5.49	4.36	0.94	0.09	1.14	1.605e-6	1.853e-4	(E) Stage IIB
MPHOSPH8	13q12.11	9.58	10.13	0.49	0.03	-0.55	1.677e-6	1.924e-4	(I) Stage IV
SELENON	1p36.11	11.61	11.07	0.42	0.05	0.54	1.738e-6	1.983e-4	(E) Stage IIB
PATJ	1p31.3	10.62	9.72	0.82	0.01	0.90	1.782e-6	2.012e-4	(E) Stage IIB
IL1RL1	2q12.1	2.63	1.20	1.31	0.02	1.43	1.784e-6	2.012e-4	(E) Stage IIB
SLC39A8	4q24	9.45	8.30	1.06	0.01	1.15	1.824e-6	2.046e-4	(E) Stage IIB
SERPINB6	6p25.2	10.93	11.52	0.52	0.04	-0.59	1.855e-6	2.069e-4	(I) Stage IV
TUBGCP2	10q26.3	10.42	10.82	0.37	0.00	-0.40	1.913e-6	2.121e-4	(I) Stage IV
CAPS	19p13.3	8.79	10.65	1.70	0.09	-1.86	1.975e-6	2.178e-4	(I) Stage IV
SLC26A1	4p16.3	5.15	6.54	1.25	0.08	-1.39	2.008e-6	2.193e-4	(I) Stage IV
CYP7B1	8q12.3	6.21	4.65	1.41	0.09	1.56	2.011e-6	2.193e-4	(E) Stage IIB
AQP9	15q21.3	5.14	6.93	1.65	0.06	-1.79	2.027e-6	2.197e-4	(I) Stage IV
SPATA2L	16q24.3	7.45	8.33	0.63	0.08	-0.89	2.059e-6	2.220e-4	(I) Stage IV
TIAL1	10q26.11	10.41	10.71	0.29	0.01	-0.31	2.182e-6	2.330e-4	(I) Stage IV
SYNE4	19q13.12	7.75	9.12	1.03	0.12	-1.37	2.200e-6	2.330e-4	(I) Stage IV
CCL7	17q12	1.40	3.06	1.52	0.08	-1.66	2.208e-6	2.330e-4	(I) Stage IV
LRFN2	6p21.2-p21.1	4.42	5.66	1.06	0.09	-1.24	2.209e-6	2.330e-4	(I) Stage IV
MYC	8q24.21	10.14	8.32	1.33	0.16	1.82	2.328e-6	2.442e-4	(E) Stage IIB
EVA1C	21q22.11	7.38	5.71	1.48	0.12	1.67	2.368e-6	2.471e-4	(E) Stage IIB
SGSM2	17p13.3	9.46	10.36	0.83	0.05	-0.90	2.505e-6	2.572e-4	(I) Stage IV
ASB16	17q21.31	3.88	5.53	1.46	0.12	-1.64	2.505e-6	2.572e-4	(I) Stage IV
STX8	17p13.1	8.01	8.64	0.57	0.04	-0.62	2.640e-6	2.697e-4	(I) Stage IV
EPHB6	7q34	5.88	4.52	1.10	0.12	1.37	2.860e-6	2.891e-4	(E) Stage IIB
PARD6G	18q23	7.59	6.81	0.52	0.07	0.78	2.919e-6	2.936e-4	(E) Stage IIB
MAPRE3	2p23.3	8.23	9.27	0.70	0.09	-1.04	3.189e-6	3.175e-4	(I) Stage IV
CUTC	10q24.2	7.77	8.28	0.49	0.00	-0.51	3.340e-6	3.275e-4	(I) Stage IV
C16ORF86	16q22.1	4.18	5.17	0.82	0.09	-1.00	3.432e-6	3.348e-4	(I) Stage IV
DIS3L2	2q37.1	8.64	8.19	0.42	0.02	0.45	3.475e-6	3.373e-4	(E) Stage IIB
SPATA32	17q21.31	1.54	0.72	0.78	0.02	0.82	3.574e-6	3.452e-4	(E) Stage IIB
UCP2	11q13.4	11.95	10.75	1.16	0.00	1.20	3.664e-6	3.504e-4	(E) Stage IIB
NRIP1	21q11.2-q21.1	11.28	10.18	1.00	0.08	1.10	3.832e-6	3.630e-4	(E) Stage IIB
FHIP1B	11p15.4	9.06	8.58	0.43	0.04	0.48	4.035e-6	3.803e-4	(E) Stage IIB
EIF4E2	2q37.1	10.52	10.16	0.35	0.00	0.36	4.239e-6	3.976e-4	(E) Stage IIB
ACOT7	1p36.31	9.14	9.94	0.78	0.01	-0.80	4.361e-6	4.052e-4	(I) Stage IV
OGFOD3	17q25.3	7.94	9.12	0.92	0.11	-1.18	4.414e-6	4.082e-4	(I) Stage IV
ANKLE1	19p13.11	3.09	1.48	1.00	0.15	1.61	4.556e-6	4.193e-4	(E) Stage IIB
KDM7A	7q34	9.73	8.82	0.63	0.09	0.92	4.599e-6	4.213e-4	(E) Stage IIB
TRADD	16q22.1	8.16	8.90	0.71	0.03	-0.73	4.980e-6	4.541e-4	(I) Stage IV
XRCC4	5q14.2	7.06	7.66	0.51	0.05	-0.60	5.154e-6	4.677e-4	(I) Stage IV
LEKR1	3q25.31	4.35	3.43	0.91	0.02	0.92	5.199e-6	4.697e-4	(E) Stage IIB
CNTFR	9p13.3	4.30	1.71	2.46	0.17	2.59	5.284e-6	4.751e-4	(E) Stage IIB
CBWD6	9p11.2	7.23	5.73	1.07	0.14	1.51	5.411e-6	4.844e-4	(E) Stage IIB
ATP1A2	1q23.2	4.40	1.84	2.27	0.22	2.56	5.480e-6	4.883e-4	(E) Stage IIB
BCL9L	11q23.3	10.92	11.41	0.48	0.01	-0.49	5.578e-6	4.903e-4	(I) Stage IV
SMOX	20p13	7.48	6.22	1.09	0.11	1.25	5.865e-6	5.086e-4	(E) Stage IIB
ACTC1	15q14	1.83	0.41	1.41	0.01	1.42	5.953e-6	5.137e-4	(E) Stage IIB
CES4A	16q22.1	5.30	7.20	1.83	0.12	-1.89	6.002e-6	5.137e-4	(I) Stage IV
PEBP1	12q24.23	12.64	13.24	0.55	0.05	-0.60	6.150e-6	5.240e-4	(I) Stage IV
BEND3	6q21	7.67	6.57	0.89	0.10	1.09	6.195e-6	5.256e-4	(E) Stage IIB
LRRN1	3p26.2	7.62	5.59	1.86	0.16	2.02	6.270e-6	5.279e-4	(E) Stage IIB
RBM23	14q11.2	10.30	10.77	0.43	0.04	-0.47	6.277e-6	5.279e-4	(I) Stage IV
CCDC142	2p13.1	7.17	8.00	0.80	0.05	-0.82	6.483e-6	5.383e-4	(I) Stage IV
EEF1A2	20q13.33	8.45	13.37	2.56	0.43	-4.93	6.733e-6	5.543e-4	(I) Stage IV
RNF43	17q22	9.60	10.96	1.36	0.02	-1.36	7.253e-6	5.909e-4	(I) Stage IV
TUBBP6	7p11.2	0.92	0.41	0.52	0.01	0.51	7.288e-6	5.909e-4	(E) Stage IIB
GAK	4p16.3	10.65	11.29	0.60	0.05	-0.65	7.317e-6	5.909e-4	(I) Stage IV
FTH1P3	2p23.3	7.90	8.64	0.72	0.05	-0.74	7.329e-6	5.909e-4	(I) Stage IV
BTG3	21q21.1	8.10	6.77	1.32	0.08	1.33	7.439e-6	5.958e-4	(E) Stage IIB
UBE2T	1q32.1	9.10	10.04	0.87	0.08	-0.94	7.451e-6	5.958e-4	(I) Stage IV
PURB	7p13	11.20	10.80	0.41	0.01	0.41	7.723e-6	6.151e-4	(E) Stage IIB
CEMP1	16p13.3	7.01	7.73	0.73	0.01	-0.72	7.754e-6	6.151e-4	(I) Stage IV
C17ORF58	17q24.2	8.94	10.00	0.93	0.10	-1.05	7.859e-6	6.208e-4	(I) Stage IV
SETD1B	12q24.31	9.97	10.38	0.42	0.00	-0.42	7.935e-6	6.243e-4	(I) Stage IV
EGR3	8p21.3	7.71	5.70	1.77	0.18	2.01	7.969e-6	6.244e-4	(E) Stage IIB
GPR153	1p36.31	7.73	6.90	0.81	0.05	0.83	8.048e-6	6.279e-4	(E) Stage IIB
LINC00523	14q32.2	0.08	0.41	0.33	0.01	-0.33	8.339e-6	6.457e-4	(I) Stage IV
FOXK2	17q25.3	10.49	11.28	0.66	0.08	-0.79	8.578e-6	6.616e-4	(I) Stage IV
CYP4F35P	18p11.21	3.13	5.42	2.04	0.21	-2.29	9.235e-6	7.094e-4	(I) Stage IV
KIT	4q12	8.40	6.64	1.63	0.15	1.76	9.402e-6	7.178e-4	(E) Stage IIB
IGSF1	Xq25	4.40	1.48	2.98	0.09	2.93	9.430e-6	7.178e-4	(E) Stage IIB
STON1-GTF2A1L	2p16.3	1.57	3.31	1.76	0.09	-1.74	9.455e-6	7.178e-4	(I) Stage IV
DRAM2	1p13.3	10.04	9.51	0.54	0.01	0.53	1.023e-5	7.739e-4	(E) Stage IIB
ZMIZ2	7p13	10.99	10.50	0.47	0.04	0.48	1.035e-5	7.796e-4	(E) Stage IIB
DUT	15q21.1	9.96	10.94	0.62	0.10	-0.98	1.087e-5	8.136e-4	(I) Stage IV
SLC15A2	3q13.33	7.28	5.28	2.04	0.10	1.99	1.098e-5	8.152e-4	(E) Stage IIB
UBE2B	5q31.1	10.17	10.62	0.45	0.03	-0.44	1.099e-5	8.152e-4	(I) Stage IV
LAMA5	20q13.33	10.80	11.49	0.71	0.03	-0.69	1.134e-5	8.356e-4	(I) Stage IV
ARL17A	17q21.31	5.95	7.08	0.95	0.11	-1.13	1.135e-5	8.356e-4	(I) Stage IV
ERI1	8p23.1	8.42	7.84	0.56	0.05	0.59	1.181e-5	8.664e-4	(E) Stage IIB
MTERF2	12q23.3	8.35	8.95	0.63	0.01	-0.60	1.195e-5	8.705e-4	(I) Stage IV
FHDC1	4q31.3	8.89	9.74	0.77	0.08	-0.84	1.196e-5	8.705e-4	(I) Stage IV
TMEM250	9q34.3	9.71	10.14	0.41	0.04	-0.43	1.209e-5	8.755e-4	(I) Stage IV
CHKB-DT	22q13.33	3.53	4.49	0.99	0.04	-0.96	1.212e-5	8.755e-4	(I) Stage IV
CENPBD2P	19q13.43	8.98	9.40	0.43	0.03	-0.42	1.251e-5	8.976e-4	(I) Stage IV
SNX30	9q32	9.46	8.98	0.50	0.00	0.48	1.257e-5	8.981e-4	(E) Stage IIB
TRAK2	2q33.1	10.55	9.76	0.80	0.05	0.79	1.292e-5	9.199e-4	(E) Stage IIB
PUDP	Xp22.31	8.61	9.69	0.62	0.10	-1.07	1.296e-5	9.199e-4	(I) Stage IV
PGLYRP2	19p13.12	3.75	0.57	3.18	0.24	3.18	1.335e-5	9.439e-4	(E) Stage IIB
SMCO3	12p12.3	2.89	1.56	1.39	0.03	1.33	1.354e-5	9.538e-4	(E) Stage IIB
ANXA3	4q21.21	8.63	7.21	1.49	0.04	1.42	1.360e-5	9.543e-4	(E) Stage IIB
NDUFS4	5q11.2	9.11	9.60	0.50	0.03	-0.49	1.365e-5	9.544e-4	(I) Stage IV
ANKRD36B	2q11.2	4.81	3.45	1.34	0.11	1.36	1.390e-5	9.684e-4	(E) Stage IIB
RAD23B	9q31.2	12.43	12.96	0.52	0.05	-0.53	1.429e-5	9.903e-4	(I) Stage IV
GALK1	17q25.1	7.78	8.51	0.74	0.05	-0.73	1.431e-5	9.903e-4	(I) Stage IV
MESP1	15q26.1	4.79	2.07	2.19	0.28	2.72	1.464e-5	1.009e-3	(E) Stage IIB
B3GNTL1	17q25.3	5.81	6.72	0.84	0.09	-0.91	1.492e-5	1.025e-3	(I) Stage IV
BCL2L2	14q11.2	9.58	10.04	0.48	0.01	-0.46	1.547e-5	1.059e-3	(I) Stage IV
LMO3	12p12.3	5.39	7.67	2.40	0.03	-2.27	1.559e-5	1.064e-3	(I) Stage IV
CLU	8p21.1	12.70	14.79	1.12	0.19	-2.09	1.566e-5	1.065e-3	(I) Stage IV
NDC1	1p32.3	8.84	8.06	0.80	0.05	0.78	1.625e-5	1.101e-3	(E) Stage IIB
CD300LF	17q25.1	5.31	6.32	1.07	0.00	-1.01	1.641e-5	1.105e-3	(I) Stage IV
FRAS1	4q21.21	6.67	5.31	1.25	0.13	1.36	1.643e-5	1.105e-3	(E) Stage IIB
CHST15	10q26.13	10.51	11.48	0.79	0.10	-0.97	1.648e-5	1.105e-3	(I) Stage IV
MTHFD2L	4q13.3	7.70	6.74	0.72	0.10	0.97	1.842e-5	1.222e-3	(E) Stage IIB
MOCS3	20q13.13	8.38	9.14	0.59	0.08	-0.76	1.924e-5	1.268e-3	(I) Stage IV
JPX	Xq13.2	7.82	8.36	0.48	0.06	-0.54	2.009e-5	1.317e-3	(I) Stage IV
B4GALT2	1p34.1	9.90	9.32	0.54	0.06	0.58	2.016e-5	1.317e-3	(E) Stage IIB
MAL	2q11.1	3.69	2.20	1.60	0.03	1.49	2.033e-5	1.320e-3	(E) Stage IIB
DNAJC14	12q13.2	10.42	10.85	0.37	0.04	-0.43	2.037e-5	1.320e-3	(I) Stage IV
ALDOC	17q11.2	7.91	9.90	1.63	0.21	-1.98	2.063e-5	1.333e-3	(I) Stage IV
CEACAM7	19q13.2	4.26	6.29	2.19	0.02	-2.03	2.081e-5	1.340e-3	(I) Stage IV
RAP1GAP2	17p13.3	8.46	9.52	0.96	0.11	-1.06	2.130e-5	1.366e-3	(I) Stage IV
JAKMIP1	4p16.1	4.32	2.67	1.79	0.02	1.65	2.157e-5	1.376e-3	(E) Stage IIB
HSPA13	21q11.2	9.95	9.36	0.65	0.01	0.60	2.184e-5	1.388e-3	(E) Stage IIB
SLK	10q24.33-q25.1	10.77	11.23	0.50	0.01	-0.46	2.191e-5	1.388e-3	(I) Stage IV
PLPP1	5q11.2	9.23	8.53	0.76	0.03	0.70	2.224e-5	1.405e-3	(E) Stage IIB
TDRD1	10q25.3	4.20	0.57	3.85	0.24	3.63	2.270e-5	1.429e-3	(E) Stage IIB
PCDHA13	5q31.3	2.79	0.57	1.89	0.24	2.22	2.325e-5	1.454e-3	(E) Stage IIB
WDR75	2q32.2	10.03	9.21	0.50	0.08	0.82	2.336e-5	1.456e-3	(E) Stage IIB
PAQR5	15q23	6.96	5.27	1.63	0.16	1.68	2.347e-5	1.458e-3	(E) Stage IIB
PTGIS	20q13.13	8.21	6.74	1.54	0.11	1.47	2.375e-5	1.463e-3	(E) Stage IIB
VILL	3p22.2	6.38	7.55	1.22	0.09	-1.17	2.388e-5	1.463e-3	(I) Stage IV
BAIAP2	17q25.3	9.90	10.83	1.02	0.02	-0.93	2.399e-5	1.463e-3	(I) Stage IV
SLC31A2	9q32	8.73	7.93	0.87	0.04	0.80	2.406e-5	1.463e-3	(E) Stage IIB
RC3H1	1q25.1	9.67	10.46	0.49	0.08	-0.78	2.479e-5	1.502e-3	(I) Stage IV
CCR8	3p22.1	3.54	7.02	1.71	0.32	-3.48	2.553e-5	1.542e-3	(I) Stage IV
C10ORF88	10q26.13	7.78	8.17	0.43	0.01	-0.39	2.564e-5	1.544e-3	(I) Stage IV
ELK4	1q32.1	7.37	8.14	0.83	0.05	-0.77	2.619e-5	1.568e-3	(I) Stage IV
TRPC4	13q13.3	2.90	2.09	0.89	0.03	0.81	2.631e-5	1.570e-3	(E) Stage IIB
FAM53C	5q31.2	10.02	10.35	0.36	0.00	-0.33	2.679e-5	1.594e-3	(I) Stage IV
ANKRD39	2q11.2	7.03	7.72	0.76	0.02	-0.69	2.705e-5	1.600e-3	(I) Stage IV
IGSF10	3q25.1	5.83	4.33	1.65	0.06	1.51	2.757e-5	1.625e-3	(E) Stage IIB
MALL	2q13	8.62	6.85	1.56	0.19	1.77	2.804e-5	1.643e-3	(E) Stage IIB
PHKA1	Xq13.1	9.35	9.98	0.69	0.03	-0.63	2.804e-5	1.643e-3	(I) Stage IV
GCFC2	2p12	8.77	8.30	0.43	0.05	0.47	2.822e-5	1.648e-3	(E) Stage IIB
PPP1R1A	12q13.2	6.20	4.13	2.22	0.15	2.07	2.846e-5	1.658e-3	(E) Stage IIB
CAD	2p23.3	10.30	9.79	0.48	0.05	0.51	2.884e-5	1.670e-3	(E) Stage IIB
UNC119B	12q24.31	9.22	10.11	0.98	0.04	-0.89	2.941e-5	1.697e-3	(I) Stage IV
GPBAR1	2q35	2.76	3.45	0.77	0.01	-0.69	2.949e-5	1.697e-3	(I) Stage IV
TRIOBP	22q13.1	10.08	9.66	0.46	0.01	0.42	2.992e-5	1.717e-3	(E) Stage IIB
KCNA1	12p13.32	2.89	1.30	1.55	0.16	1.59	3.078e-5	1.756e-3	(E) Stage IIB
SDCBP2	20p13	6.16	4.51	1.83	0.01	1.65	3.128e-5	1.780e-3	(E) Stage IIB
LPIN3	20q12	7.79	9.00	1.07	0.13	-1.21	3.170e-5	1.792e-3	(I) Stage IV
DDX41	5q35.3	10.36	11.05	0.39	0.07	-0.69	3.187e-5	1.792e-3	(I) Stage IV
HCG11	6p22.2	8.21	6.99	1.00	0.14	1.23	3.188e-5	1.792e-3	(E) Stage IIB
ARL6IP4	12q24.31	10.57	11.48	0.72	0.10	-0.91	3.279e-5	1.833e-3	(I) Stage IV
PHAF1	16q22.1	9.28	10.05	0.54	0.08	-0.77	3.341e-5	1.857e-3	(I) Stage IV
BAZ2A	12q13.3	11.37	12.03	0.59	0.07	-0.66	3.471e-5	1.919e-3	(I) Stage IV
MAD2L2	1p36.22	8.90	8.26	0.71	0.03	0.64	3.494e-5	1.926e-3	(E) Stage IIB
AHCY	20q11.22	12.07	11.40	0.74	0.03	0.66	3.564e-5	1.954e-3	(E) Stage IIB
TFB1M	6q25.3	7.27	6.79	0.53	0.00	0.47	3.728e-5	2.037e-3	(E) Stage IIB
RCBTB2	13q14.2	7.79	8.37	0.62	0.05	-0.58	3.868e-5	2.101e-3	(I) Stage IV
UAP1	1q23.3	11.15	10.50	0.73	0.03	0.65	3.887e-5	2.101e-3	(E) Stage IIB
CREG1	1q24.2	11.11	12.12	0.46	0.09	-1.01	3.888e-5	2.101e-3	(I) Stage IV
BTN3A2	6p22.2	9.82	9.15	0.75	0.00	0.67	3.930e-5	2.114e-3	(E) Stage IIB
HAUS2	15q15.2	9.08	8.52	0.48	0.06	0.56	3.933e-5	2.114e-3	(E) Stage IIB
CCT6P1	7q11.21	5.94	5.33	0.68	0.03	0.61	3.944e-5	2.114e-3	(E) Stage IIB
ADGRD1	12q24.33	4.68	3.17	1.70	0.08	1.52	3.970e-5	2.122e-3	(E) Stage IIB
RPL34-DT	4q25	1.07	0.41	0.75	0.01	0.67	3.994e-5	2.129e-3	(E) Stage IIB
NRXN2	11q13.1	5.64	4.57	1.19	0.07	1.07	4.126e-5	2.194e-3	(E) Stage IIB
ALDOA	16p11.2	14.88	15.59	0.81	0.02	-0.71	4.170e-5	2.211e-3	(I) Stage IV
CDH6	5p13.3	6.16	5.46	0.79	0.04	0.70	4.329e-5	2.283e-3	(E) Stage IIB
JAK2	9p24.1	8.48	7.72	0.85	0.05	0.76	4.445e-5	2.328e-3	(E) Stage IIB
NDFIP2	13q31.1	9.47	10.15	0.77	0.04	-0.68	4.450e-5	2.328e-3	(I) Stage IV
DTNA	18q12.1	8.77	9.88	1.27	0.04	-1.11	4.492e-5	2.344e-3	(I) Stage IV
M6PR	12p13.31	11.46	11.88	0.47	0.03	-0.42	4.540e-5	2.362e-3	(I) Stage IV
MTSS1	8q24.13	10.50	11.65	1.21	0.11	-1.16	4.601e-5	2.387e-3	(I) Stage IV
RNF217	6q22.31	5.66	4.59	1.23	0.01	1.07	4.648e-5	2.406e-3	(E) Stage IIB
CBWD3	9q21.11	8.72	7.60	1.25	0.07	1.11	4.689e-5	2.420e-3	(E) Stage IIB
RPL37	5p13.1	13.16	12.51	0.68	0.06	0.65	4.753e-5	2.447e-3	(E) Stage IIB
TAS2R50	12p13.2	0.36	0.72	0.41	0.02	-0.36	4.775e-5	2.449e-3	(I) Stage IV
ZNF200	16p13.3	8.15	7.74	0.47	0.00	0.41	4.782e-5	2.449e-3	(E) Stage IIB
GRIN1	9q34.3	4.49	5.75	1.44	0.05	-1.26	4.874e-5	2.490e-3	(I) Stage IV
FOXJ3	1p34.2	10.58	10.15	0.38	0.05	0.43	4.916e-5	2.504e-3	(E) Stage IIB
CRYBG1	6q21	11.31	9.93	1.30	0.15	1.38	4.928e-5	2.504e-3	(E) Stage IIB
SLC2A4	17p13.1	3.81	2.13	1.53	0.19	1.68	4.993e-5	2.524e-3	(E) Stage IIB
VSIG4	Xq12	7.01	8.73	1.50	0.20	-1.72	5.160e-5	2.595e-3	(I) Stage IV
KDM1A	1p36.12	10.82	10.43	0.43	0.04	0.40	5.185e-5	2.601e-3	(E) Stage IIB
PHYHIPL	10q21.1	2.88	1.18	1.50	0.20	1.71	5.211e-5	2.607e-3	(E) Stage IIB
HHLA1	8q24.22	0.12	0.41	0.33	0.01	-0.29	5.240e-5	2.615e-3	(I) Stage IV
FIGN	2q24.3	4.65	2.58	1.55	0.24	2.07	5.372e-5	2.674e-3	(E) Stage IIB
ANAPC15	11q13.4	8.85	8.14	0.57	0.08	0.71	5.498e-5	2.730e-3	(E) Stage IIB
ZNF502	3p21.31	5.99	4.65	1.23	0.16	1.34	5.632e-5	2.789e-3	(E) Stage IIB
LEFTY2	1q42.12	2.98	0.85	2.29	0.20	2.13	5.664e-5	2.798e-3	(E) Stage IIB
JSRP1	19p13.3	2.49	4.14	1.76	0.16	-1.65	6.127e-5	3.004e-3	(I) Stage IV
DAPL1	2q24.1	2.76	0.56	2.38	0.21	2.19	6.150e-5	3.007e-3	(E) Stage IIB
NOL4	18q12.1	2.62	0.85	1.95	0.16	1.77	6.539e-5	3.182e-3	(E) Stage IIB
TMEM39B	1p35.2	7.56	7.12	0.51	0.02	0.43	6.587e-5	3.197e-3	(E) Stage IIB
SYPL1	7q22.2	11.47	10.98	0.54	0.05	0.49	6.630e-5	3.210e-3	(E) Stage IIB
MDK	11p11.2	11.48	12.39	1.04	0.07	-0.91	6.701e-5	3.236e-3	(I) Stage IV
FSCN3	7q32.1	0.93	0.42	0.59	0.01	0.50	6.731e-5	3.243e-3	(E) Stage IIB
SH3GLB1	1p22.3	11.39	10.99	0.43	0.04	0.39	6.854e-5	3.294e-3	(E) Stage IIB
SOD3	4p15.2	7.16	5.75	1.63	0.09	1.40	6.929e-5	3.322e-3	(E) Stage IIB
ARIH2	3p21.31	10.27	10.79	0.41	0.06	-0.52	7.087e-5	3.366e-3	(I) Stage IV
STOX2	4q35.1	4.02	2.81	1.36	0.10	1.21	7.091e-5	3.366e-3	(E) Stage IIB
RASL12	15q22.31	6.96	6.23	0.86	0.02	0.73	7.132e-5	3.378e-3	(E) Stage IIB
SLC25A53	Xq22.2	3.42	2.34	1.20	0.10	1.08	7.169e-5	3.387e-3	(E) Stage IIB
RPEL1	10q24.33	4.79	4.38	0.45	0.04	0.41	7.278e-5	3.422e-3	(E) Stage IIB
MXD3	5q35.3	7.55	8.04	0.57	0.00	-0.48	7.308e-5	3.428e-3	(I) Stage IV
TGFBR3	1p22.1	8.06	6.70	1.56	0.11	1.36	7.377e-5	3.452e-3	(E) Stage IIB
SEPTIN9	17q25.3	12.33	12.99	0.77	0.03	-0.66	7.614e-5	3.554e-3	(I) Stage IV
CAAP1	9p21.2	8.63	8.09	0.63	0.04	0.54	7.652e-5	3.564e-3	(E) Stage IIB
TMBIM1	2q35	11.52	10.33	0.54	0.11	1.20	7.705e-5	3.580e-3	(E) Stage IIB
RPLP2	11p15.5	12.87	12.30	0.66	0.05	0.57	7.888e-5	3.647e-3	(E) Stage IIB
NT5DC2	3p21.1	9.67	8.49	1.08	0.14	1.18	8.077e-5	3.726e-3	(E) Stage IIB
STON2	14q31.1	7.53	6.31	1.46	0.00	1.22	8.163e-5	3.757e-3	(E) Stage IIB
EN2	7q36.3	2.62	0.56	2.26	0.21	2.06	8.298e-5	3.810e-3	(E) Stage IIB
FTO	16q12.2	10.07	10.71	0.74	0.04	-0.63	8.528e-5	3.906e-3	(I) Stage IV
C2CD4B	15q22.2	4.30	2.24	2.04	0.25	2.06	8.919e-5	4.076e-3	(E) Stage IIB
LGALS12	11q12.3	3.47	1.19	2.33	0.27	2.28	8.971e-5	4.083e-3	(E) Stage IIB
C12ORF76	12q24.11	6.95	7.50	0.61	0.06	-0.55	8.978e-5	4.083e-3	(I) Stage IV
REEP3	10q21.3	9.61	9.14	0.56	0.02	0.47	9.186e-5	4.168e-3	(E) Stage IIB
FN3KRP	17q25.3	9.67	10.57	0.66	0.11	-0.90	9.287e-5	4.204e-3	(I) Stage IV
MISP	19p13.3	9.13	10.69	1.88	0.03	-1.56	9.355e-5	4.225e-3	(I) Stage IV
MPP4	2q33.1	1.35	0.72	0.75	0.02	0.62	9.456e-5	4.255e-3	(E) Stage IIB
TMEM215	9p21.1	2.40	0.85	1.69	0.16	1.54	9.465e-5	4.255e-3	(E) Stage IIB
INMT	7p14.3	5.43	4.13	1.37	0.15	1.30	9.501e-5	4.262e-3	(E) Stage IIB
NUTM2F	9q22.32	1.26	1.97	0.87	0.03	-0.72	9.612e-5	4.302e-3	(I) Stage IV
ADARB1	21q22.3	8.93	8.30	0.57	0.08	0.63	9.640e-5	4.304e-3	(E) Stage IIB
MRPL23-AS1	11p15.5	1.67	0.72	1.15	0.02	0.95	9.913e-5	4.396e-3	(E) Stage IIB
PSMD10	Xq22.3	10.40	10.87	0.41	0.06	-0.47	9.958e-5	4.406e-3	(I) Stage IV
SLC17A5	6q13	9.44	8.88	0.67	0.04	0.56	1.006e-4	4.423e-3	(E) Stage IIB
SRD5A1	5p15.31	8.41	7.39	1.24	0.02	1.02	1.006e-4	4.423e-3	(E) Stage IIB
UNC5C	4q22.3	4.58	6.78	1.81	0.28	-2.20	1.007e-4	4.423e-3	(I) Stage IV
CBLC	19q13.32	6.20	8.66	2.98	0.10	-2.46	1.009e-4	4.423e-3	(I) Stage IV
EPS15L1	19p13.11	9.96	9.33	0.64	0.08	0.64	1.013e-4	4.432e-3	(E) Stage IIB
PRKCI	3q26.2	10.09	9.69	0.48	0.02	0.40	1.037e-4	4.515e-3	(E) Stage IIB
HECTD4	12q24.13	10.35	10.91	0.57	0.07	-0.56	1.053e-4	4.556e-3	(I) Stage IV
PKD1L1	7p12.3	3.88	1.90	1.33	0.23	1.98	1.053e-4	4.556e-3	(E) Stage IIB
TRIM28	19q13.43	12.38	12.96	0.54	0.07	-0.58	1.057e-4	4.559e-3	(I) Stage IV
KLK14	19q13.41	2.59	0.20	2.49	0.28	2.39	1.078e-4	4.633e-3	(E) Stage IIB
CNN3	1p21.3	11.57	12.22	0.78	0.04	-0.65	1.098e-4	4.697e-3	(I) Stage IV
SRARP	1p36.13	6.58	9.89	3.09	0.42	-3.31	1.107e-4	4.715e-3	(I) Stage IV
GOLM1	9q21.33	12.32	11.31	1.18	0.09	1.01	1.118e-4	4.753e-3	(E) Stage IIB
ADCY4	14q12	6.58	5.69	1.09	0.01	0.89	1.121e-4	4.753e-3	(E) Stage IIB
RDH16	12q13.3	5.02	6.44	1.53	0.16	-1.42	1.125e-4	4.753e-3	(I) Stage IV
SLC25A10	17q25.3	9.76	10.49	0.90	0.01	-0.73	1.143e-4	4.808e-3	(I) Stage IV
RPL22	1p36.31	12.60	12.24	0.44	0.01	0.36	1.143e-4	4.808e-3	(E) Stage IIB
PCDHB15	5q31.3	4.69	5.46	0.95	0.04	-0.78	1.179e-4	4.937e-3	(I) Stage IV
TMEM267	5p12	8.32	7.70	0.54	0.08	0.62	1.198e-4	5.004e-3	(E) Stage IIB
VPREB3	22q11.23	2.67	1.39	1.57	0.03	1.28	1.207e-4	5.032e-3	(E) Stage IIB
DAPK3	19p13.3	9.71	10.47	0.68	0.10	-0.75	1.211e-4	5.038e-3	(I) Stage IV
PTCHD1	Xp22.11	3.25	1.38	1.93	0.23	1.87	1.222e-4	5.061e-3	(E) Stage IIB
RPL39L	3q27.3	7.56	6.22	1.55	0.13	1.34	1.224e-4	5.062e-3	(E) Stage IIB
APOD	3q29	12.12	9.05	2.43	0.39	3.07	1.236e-4	5.100e-3	(E) Stage IIB
MSN	Xq12	12.52	12.01	0.63	0.02	0.51	1.250e-4	5.123e-3	(E) Stage IIB
RETREG1	5p15.1	8.84	9.97	1.39	0.06	-1.13	1.257e-4	5.143e-3	(I) Stage IV
CREB3L2	7q33	11.09	10.59	0.62	0.02	0.50	1.271e-4	5.190e-3	(E) Stage IIB
SPRN	10q26.3	5.97	6.48	0.64	0.01	-0.52	1.288e-4	5.226e-3	(I) Stage IV
GATA3-AS1	10p14	5.43	7.92	2.72	0.29	-2.49	1.291e-4	5.226e-3	(I) Stage IV
PIP5KL1	9q34.11	3.34	4.51	1.43	0.07	-1.17	1.293e-4	5.226e-3	(I) Stage IV
LINC01142	1q24.2	0.32	0.72	0.49	0.02	-0.40	1.296e-4	5.226e-3	(I) Stage IV
ARHGAP42	11q22.1	6.51	5.72	0.94	0.07	0.79	1.300e-4	5.229e-3	(E) Stage IIB
IQGAP2	5q13.3	9.97	11.19	1.48	0.09	-1.22	1.302e-4	5.229e-3	(I) Stage IV
BBS7	4q27	7.83	7.38	0.55	0.03	0.45	1.306e-4	5.233e-3	(E) Stage IIB
LATS2	13q12.11	8.70	8.27	0.53	0.02	0.43	1.334e-4	5.316e-3	(E) Stage IIB
SLC19A3	2q36.3	4.05	2.09	2.31	0.19	1.97	1.352e-4	5.372e-3	(E) Stage IIB
CHODL	21q21.1	2.37	0.85	1.73	0.16	1.52	1.361e-4	5.393e-3	(E) Stage IIB
FRG2B	10q26.3	0.32	0.72	0.50	0.02	-0.40	1.363e-4	5.393e-3	(I) Stage IV
RCAN1	21q22.12	9.63	8.68	1.04	0.11	0.95	1.368e-4	5.393e-3	(E) Stage IIB
RPL23AP53	8p23.3	7.11	6.44	0.63	0.09	0.66	1.371e-4	5.393e-3	(E) Stage IIB
ZNF862	7q36.1	8.41	9.02	0.76	0.03	-0.62	1.371e-4	5.393e-3	(I) Stage IV
FAM221B	9p13.3	2.47	1.09	1.63	0.13	1.38	1.378e-4	5.410e-3	(E) Stage IIB
DLG5-AS1	10q22.3	4.30	3.61	0.81	0.07	0.69	1.387e-4	5.436e-3	(E) Stage IIB
ART5	11p15.4	2.98	0.57	1.11	0.24	2.41	1.390e-4	5.436e-3	(E) Stage IIB
TENT5C	1p12	9.77	10.75	1.20	0.07	-0.98	1.394e-4	5.441e-3	(I) Stage IV
RDH10	8q21.11	9.06	8.10	1.14	0.09	0.95	1.445e-4	5.628e-3	(E) Stage IIB
MNT	17p13.3	8.78	9.22	0.44	0.05	-0.43	1.449e-4	5.633e-3	(I) Stage IV
SCGB3A1	5q35.3	3.69	1.20	3.13	0.02	2.49	1.487e-4	5.758e-3	(E) Stage IIB
GATA2	3q21.3	8.27	9.20	1.16	0.01	-0.93	1.497e-4	5.783e-3	(I) Stage IV
CYP4F12	19p13.12	2.90	0.85	2.42	0.20	2.05	1.505e-4	5.803e-3	(E) Stage IIB
HK2	2p12	11.31	11.96	0.79	0.05	-0.65	1.515e-4	5.831e-3	(I) Stage IV
EXOC3L1	16q22.1	5.59	6.11	0.64	0.04	-0.52	1.566e-4	6.014e-3	(I) Stage IV
PDE3B	11p15.2	6.23	4.82	1.79	0.03	1.42	1.583e-4	6.068e-3	(E) Stage IIB
BCAM	19q13.32	12.01	13.20	1.45	0.10	-1.19	1.589e-4	6.078e-3	(I) Stage IV
ALDH2	12q24.12	10.85	9.52	1.22	0.18	1.33	1.604e-4	6.124e-3	(E) Stage IIB
ZBTB6	9q33.2	8.87	9.32	0.56	0.03	-0.45	1.611e-4	6.138e-3	(I) Stage IV
CDKN1B	12p13.1	10.58	11.13	0.68	0.05	-0.55	1.643e-4	6.237e-3	(I) Stage IV
SSR3	3q25.31	11.99	11.44	0.45	0.07	0.55	1.653e-4	6.262e-3	(E) Stage IIB
KDM2B	12q24.31	9.36	9.72	0.42	0.04	-0.35	1.662e-4	6.285e-3	(I) Stage IV
CEBPA	19q13.11	8.98	9.92	0.98	0.12	-0.94	1.693e-4	6.378e-3	(I) Stage IV
GMPPA	2q35	9.78	9.32	0.57	0.04	0.46	1.706e-4	6.415e-3	(E) Stage IIB
SLC44A2	19p13.2	12.57	12.08	0.60	0.04	0.49	1.719e-4	6.439e-3	(E) Stage IIB
SNORD116-28	15q11.2	4.25	3.12	1.36	0.11	1.13	1.722e-4	6.439e-3	(E) Stage IIB
ADORA2A	22q11.23	7.72	6.55	1.49	0.04	1.17	1.723e-4	6.439e-3	(E) Stage IIB
NUDT16L2P	3q22.1	4.84	6.72	2.08	0.23	-1.88	1.754e-4	6.544e-3	(I) Stage IV
MYBPC1	12q23.2	3.69	0.69	3.05	0.39	3.00	1.774e-4	6.592e-3	(E) Stage IIB
TCN2	22q12.2	8.34	8.99	0.84	0.01	-0.66	1.777e-4	6.592e-3	(I) Stage IV
EIF3M	11p13	11.55	10.76	0.99	0.03	0.78	1.808e-4	6.689e-3	(E) Stage IIB
VANGL2	1q23.2	8.63	7.20	1.83	0.02	1.43	1.810e-4	6.689e-3	(E) Stage IIB
SMU1	9p21.1	10.78	10.44	0.44	0.01	0.35	1.815e-4	6.695e-3	(E) Stage IIB
LRFN4	11q13.2	8.08	7.10	1.23	0.07	0.98	1.822e-4	6.702e-3	(E) Stage IIB
NMT1	17q21.31	10.89	11.26	0.46	0.00	-0.36	1.828e-4	6.706e-3	(I) Stage IV
HIBADH	7p15.2	10.21	10.63	0.44	0.06	-0.43	1.846e-4	6.757e-3	(I) Stage IV
TMEM69	1p34.1	9.10	8.45	0.50	0.08	0.65	1.850e-4	6.761e-3	(E) Stage IIB
SMAD9	13q13.3	4.39	2.34	1.15	0.23	2.05	1.879e-4	6.853e-3	(E) Stage IIB
MINDY3	10p13	9.12	8.45	0.81	0.06	0.67	1.890e-4	6.881e-3	(E) Stage IIB
SLC6A16	19q13.33	4.10	2.34	1.40	0.23	1.77	1.895e-4	6.884e-3	(E) Stage IIB
RASGRP1	15q14	7.32	5.45	2.06	0.23	1.87	1.898e-4	6.884e-3	(E) Stage IIB
EEF1G	11q12.3	14.00	13.44	0.72	0.01	0.56	1.906e-4	6.898e-3	(E) Stage IIB
TRAFD1	12q24.13	10.40	11.07	0.58	0.09	-0.66	1.918e-4	6.930e-3	(I) Stage IV
ITGA6	2q31.1	11.09	10.06	1.06	0.13	1.03	1.944e-4	6.985e-3	(E) Stage IIB
LINC00924	15q26.2	2.21	1.09	1.28	0.13	1.12	1.992e-4	7.107e-3	(E) Stage IIB
CMTR2	16q22.2	9.44	10.33	0.64	0.11	-0.89	2.018e-4	7.186e-3	(I) Stage IV
GPER1	7p22.3	5.77	3.98	1.93	0.23	1.79	2.028e-4	7.203e-3	(E) Stage IIB
NDUFS2	1q23.3	11.39	11.77	0.48	0.00	-0.38	2.032e-4	7.203e-3	(I) Stage IV
SNORA20	6q25.3	0.14	0.41	0.34	0.01	-0.26	2.034e-4	7.203e-3	(I) Stage IV
DPY19L2P1	7p14.2	2.10	0.41	2.18	0.01	1.69	2.038e-4	7.205e-3	(E) Stage IIB
DBX2	12q12	2.12	0.98	1.46	0.02	1.13	2.048e-4	7.216e-3	(E) Stage IIB
ALG1L2	3q22.1	0.55	1.64	0.86	0.14	-1.09	2.049e-4	7.216e-3	(I) Stage IV
LCN2	9q34.11	6.87	3.92	3.24	0.37	2.94	2.063e-4	7.251e-3	(E) Stage IIB
TRIP10	19p13.3	9.24	8.45	0.73	0.11	0.78	2.067e-4	7.253e-3	(E) Stage IIB
PWARSN	15q11.2	5.65	4.68	1.15	0.11	0.97	2.075e-4	7.269e-3	(E) Stage IIB
JOSD1	22q13.1	10.49	10.19	0.39	0.00	0.30	2.088e-4	7.300e-3	(E) Stage IIB
DCAF17	2q31.1	8.91	8.37	0.69	0.03	0.54	2.096e-4	7.317e-3	(E) Stage IIB
ABCA12	2q35	9.01	10.84	2.36	0.00	-1.83	2.126e-4	7.400e-3	(I) Stage IV
SCD5	4q21.22	8.21	7.12	1.17	0.14	1.09	2.128e-4	7.400e-3	(E) Stage IIB
HTATIP2	11p15.1	9.61	10.51	1.14	0.07	-0.91	2.153e-4	7.476e-3	(I) Stage IV
AGAP1	2q37.2	8.94	9.39	0.54	0.05	-0.45	2.172e-4	7.501e-3	(I) Stage IV
ARHGEF35	7q35	8.79	9.64	1.11	0.01	-0.86	2.181e-4	7.511e-3	(I) Stage IV
SEMA5B	3q21.1	4.86	4.20	0.85	0.01	0.65	2.183e-4	7.511e-3	(E) Stage IIB
DNAJB12	10q22.1	10.20	10.47	0.31	0.04	-0.28	2.195e-4	7.522e-3	(I) Stage IV
DNAJC8	1p35.3	10.68	10.32	0.43	0.04	0.36	2.197e-4	7.522e-3	(E) Stage IIB
HK1	10q22.1	12.14	12.51	0.47	0.03	-0.37	2.199e-4	7.522e-3	(I) Stage IV
SMARCD1	12q13.12	10.37	10.04	0.39	0.04	0.33	2.201e-4	7.522e-3	(E) Stage IIB
KANSL1L	2q34	8.39	7.81	0.68	0.07	0.58	2.218e-4	7.567e-3	(E) Stage IIB
IDH3G	Xq28	9.93	10.42	0.62	0.04	-0.49	2.262e-4	7.701e-3	(I) Stage IV
NPDC1	9q34.3	10.49	11.52	0.96	0.14	-1.03	2.267e-4	7.705e-3	(I) Stage IV
C14ORF119	14q11.2	10.17	9.86	0.37	0.03	0.30	2.312e-4	7.834e-3	(E) Stage IIB
SLC35D1	1p31.3	9.31	8.73	0.74	0.05	0.58	2.321e-4	7.848e-3	(E) Stage IIB
HNRNPA3P1	10q11.21	6.82	6.54	0.36	0.01	0.28	2.346e-4	7.918e-3	(E) Stage IIB
BMX	Xp22.2	3.35	2.25	1.44	0.04	1.10	2.400e-4	8.076e-3	(E) Stage IIB
IFT74	9p21.2	8.50	7.82	0.67	0.09	0.68	2.418e-4	8.119e-3	(E) Stage IIB
EML2	19q13.32	9.14	9.85	0.92	0.03	-0.71	2.438e-4	8.163e-3	(I) Stage IV
CHRNE	17p13.2	3.97	2.77	1.07	0.17	1.21	2.439e-4	8.163e-3	(E) Stage IIB
KCNK9	8q24.3	1.50	3.36	0.93	0.20	-1.86	2.489e-4	8.315e-3	(I) Stage IV
CLTRN	Xp22.2	4.00	3.05	1.19	0.08	0.94	2.503e-4	8.323e-3	(E) Stage IIB
SPEM2	17p13.1	0.16	0.41	0.32	0.01	-0.24	2.504e-4	8.323e-3	(I) Stage IV
SLC35F6	2p23.3	10.98	10.57	0.52	0.04	0.42	2.536e-4	8.415e-3	(E) Stage IIB
CAND2	3p25.2	5.21	4.43	1.03	0.02	0.78	2.579e-4	8.542e-3	(E) Stage IIB
MST1R	3p21.31	8.36	9.42	1.20	0.14	-1.06	2.592e-4	8.571e-3	(I) Stage IV
MRPL21	11q13.3	9.20	9.81	0.80	0.02	-0.61	2.608e-4	8.611e-3	(I) Stage IV
RPL39	Xq24	9.28	8.78	0.66	0.01	0.50	2.646e-4	8.721e-3	(E) Stage IIB
TMEM208	16q22.1	9.42	10.24	0.59	0.11	-0.83	2.664e-4	8.761e-3	(I) Stage IV
CCDC57	17q25.3	8.57	9.46	1.06	0.10	-0.89	2.667e-4	8.761e-3	(I) Stage IV
TNXB	6p21.33-p21.32	8.06	6.59	1.58	0.20	1.47	2.674e-4	8.769e-3	(E) Stage IIB
FRMD8	11q13.1	9.88	9.36	0.66	0.04	0.52	2.683e-4	8.783e-3	(E) Stage IIB
SLC12A5	20q13.12	1.65	2.93	1.16	0.18	-1.28	2.693e-4	8.802e-3	(I) Stage IV
MCTS1	Xq24	10.09	10.43	0.35	0.05	-0.34	2.710e-4	8.831e-3	(I) Stage IV
MASP1	3q27.3	2.09	0.56	1.25	0.21	1.53	2.711e-4	8.831e-3	(E) Stage IIB
METTL21A	2q33.3	7.77	7.00	0.42	0.09	0.77	2.719e-4	8.844e-3	(E) Stage IIB
UPK3A	22q13.31	2.34	0.21	2.25	0.29	2.14	2.773e-4	8.990e-3	(E) Stage IIB
LILRB5	19q13.4	4.40	5.63	1.56	0.12	-1.23	2.774e-4	8.990e-3	(I) Stage IV
ZFAND2B	2q35	8.45	8.05	0.52	0.02	0.40	2.801e-4	9.064e-3	(E) Stage IIB
MFSD2A	1p34.2	7.25	5.71	2.01	0.10	1.54	2.831e-4	9.110e-3	(E) Stage IIB
MAFF	22q13.1	8.09	7.29	0.77	0.11	0.81	2.834e-4	9.110e-3	(E) Stage IIB
CCDC138	2q13	6.07	5.05	0.88	0.14	1.02	2.835e-4	9.110e-3	(E) Stage IIB
LINC00339	1p36.12	7.62	7.14	0.47	0.07	0.48	2.846e-4	9.117e-3	(E) Stage IIB
PDGFD	11q22.3	8.27	7.57	0.85	0.08	0.70	2.883e-4	9.223e-3	(E) Stage IIB
RCOR2	11q13.1	5.78	3.39	1.61	0.31	2.39	2.974e-4	9.465e-3	(E) Stage IIB
TMEM165	4q12	10.91	10.52	0.52	0.00	0.39	2.997e-4	9.508e-3	(E) Stage IIB
SLC7A6OS	16q22.1	7.22	8.05	0.65	0.11	-0.83	3.042e-4	9.621e-3	(I) Stage IV
ABI2	2q33.2	10.17	9.77	0.48	0.05	0.40	3.048e-4	9.623e-3	(E) Stage IIB
MAP1LC3B2	12q24.22	7.96	8.42	0.50	0.06	-0.46	3.069e-4	9.673e-3	(I) Stage IV
GNL2	1p34.3	10.58	10.19	0.51	0.03	0.39	3.084e-4	9.691e-3	(E) Stage IIB
SEMA3G	3p21.1	7.98	7.10	1.04	0.11	0.87	3.103e-4	9.733e-3	(E) Stage IIB
PGK1	Xq21.1	13.53	14.97	0.77	0.17	-1.45	3.122e-4	9.777e-3	(I) Stage IV
GH2	17q23.3	0.27	1.48	0.72	0.15	-1.20	3.135e-4	9.804e-3	(I) Stage IV
CPNE7	16q24.3	5.95	4.41	1.97	0.15	1.54	3.151e-4	9.836e-3	(E) Stage IIB
PIK3R1	5q13.1	11.33	10.58	0.95	0.08	0.76	3.176e-4	9.883e-3	(E) Stage IIB
LPAL2	6q25.3	1.40	0.72	0.91	0.02	0.68	3.185e-4	9.897e-3	(E) Stage IIB
FSD1	19p13.3	1.50	2.77	1.53	0.16	-1.27	3.191e-4	9.898e-3	(I) Stage IV
RBM20	10q25.2	5.08	3.08	2.57	0.20	2.00	3.262e-4	0.0101	(E) Stage IIB
SOAT1	1q25.2	9.18	9.93	0.89	0.10	-0.75	3.277e-4	0.0101	(I) Stage IV
SLC25A33	1p36.22	7.86	7.19	0.90	0.02	0.67	3.305e-4	0.0102	(E) Stage IIB
TOX	8q12.1	4.91	3.71	1.59	0.09	1.20	3.318e-4	0.0102	(E) Stage IIB
SH2D2A	1q23.1	5.51	4.60	1.22	0.00	0.91	3.321e-4	0.0102	(E) Stage IIB
CENPU	4q35.1	9.44	8.84	0.79	0.05	0.60	3.361e-4	0.0103	(E) Stage IIB
DOP1B	21q22.12	11.01	10.32	0.86	0.08	0.69	3.414e-4	0.0104	(E) Stage IIB
UCN2	3p21.31	2.09	3.19	1.41	0.11	-1.10	3.423e-4	0.0104	(I) Stage IV
RPAP2	1p22.1	7.93	7.52	0.52	0.05	0.41	3.460e-4	0.0104	(E) Stage IIB
ATP2A2	12q24.11	12.70	13.22	0.44	0.07	-0.53	3.463e-4	0.0104	(I) Stage IV
ITGA5	12q13.13	11.03	11.60	0.71	0.06	-0.57	3.464e-4	0.0104	(I) Stage IV
C16ORF89	16p13.3	5.67	2.82	2.69	0.41	2.85	3.478e-4	0.0105	(E) Stage IIB
ADAMTS3	4q13.3	4.73	3.63	1.27	0.15	1.10	3.506e-4	0.0105	(E) Stage IIB
USPL1	13q12.3	8.77	9.74	0.52	0.11	-0.96	3.612e-4	0.0108	(I) Stage IV
NME8	7p14.1	1.83	0.72	1.51	0.02	1.11	3.637e-4	0.0109	(E) Stage IIB
NT5C2	10q24.32-q24.33	10.51	10.07	0.61	0.01	0.45	3.637e-4	0.0109	(E) Stage IIB
GPT	8q24.3	4.04	2.25	2.41	0.10	1.79	3.643e-4	0.0109	(E) Stage IIB
ARHGAP27P1	17q24.1	8.15	8.83	0.70	0.10	-0.68	3.686e-4	0.0110	(I) Stage IV
ATP5PO	21q22.11	11.41	10.96	0.59	0.04	0.45	3.702e-4	0.0110	(E) Stage IIB
CLCA2	1p22.3	7.65	4.67	4.04	0.07	2.97	3.720e-4	0.0110	(E) Stage IIB
GATA3	10p14	12.64	13.88	1.68	0.07	-1.24	3.782e-4	0.0112	(I) Stage IV
SMYD5	2p13.2	9.40	9.68	0.36	0.03	-0.28	3.919e-4	0.0116	(I) Stage IV
HSBP1	16q23.3	11.47	12.00	0.71	0.04	-0.53	3.933e-4	0.0116	(I) Stage IV
BMP4	14q22.2	7.85	9.96	1.65	0.30	-2.11	3.967e-4	0.0117	(I) Stage IV
TDRP	8p23.3	7.43	5.48	1.32	0.26	1.96	3.971e-4	0.0117	(E) Stage IIB
PTPN11	12q24.13	11.59	12.09	0.45	0.07	-0.50	3.983e-4	0.0117	(I) Stage IV
SH3RF2	5q32	6.29	4.50	2.01	0.25	1.79	3.997e-4	0.0117	(E) Stage IIB
SEPHS2	16p11.2	11.92	12.41	0.59	0.06	-0.49	4.067e-4	0.0119	(I) Stage IV
RASSF10	11p15.2	4.78	6.31	2.10	0.02	-1.53	4.071e-4	0.0119	(I) Stage IV
TDRD9	14q32.33	3.20	4.89	2.29	0.10	-1.69	4.086e-4	0.0119	(I) Stage IV
C3ORF33	3q25.31	6.54	5.89	0.70	0.09	0.64	4.260e-4	0.0123	(E) Stage IIB
GPCPD1	20p12.3	9.75	8.64	0.78	0.15	1.11	4.318e-4	0.0124	(E) Stage IIB
WDR89	14q23.2	8.70	8.00	0.42	0.09	0.70	4.318e-4	0.0124	(E) Stage IIB
NCF1	7q11.23	5.66	6.78	1.54	0.02	-1.12	4.329e-4	0.0125	(I) Stage IV
GDF10	10q11.22	3.30	0.96	1.65	0.32	2.33	4.355e-4	0.0125	(E) Stage IIB
COMMD9	11p13	9.44	9.09	0.49	0.03	0.36	4.365e-4	0.0125	(E) Stage IIB
DNMBP-AS1	10q24.2	2.91	1.59	1.78	0.10	1.32	4.366e-4	0.0125	(E) Stage IIB
ABHD12B	14q22.1	2.97	0.57	3.17	0.24	2.40	4.396e-4	0.0126	(E) Stage IIB
GGTLC1	20p11.21	2.25	3.80	1.45	0.23	-1.56	4.397e-4	0.0126	(I) Stage IV
CLEC12A	12p13.31	3.73	4.84	1.43	0.13	-1.12	4.401e-4	0.0126	(I) Stage IV
HPCAL1	2p25.1	9.45	9.98	0.64	0.07	-0.52	4.432e-4	0.0126	(I) Stage IV
MYH3	17p13.1	3.60	2.91	0.94	0.05	0.69	4.475e-4	0.0127	(E) Stage IIB
MYLK2	20q11.21	2.38	1.09	0.95	0.18	1.29	4.518e-4	0.0128	(E) Stage IIB
CTAGE15	7q35	6.16	6.96	1.10	0.06	-0.81	4.527e-4	0.0128	(I) Stage IV
DSG2	18q12.1	11.79	11.19	0.83	0.01	0.60	4.710e-4	0.0133	(E) Stage IIB
MFF	2q36.3	10.10	9.51	0.40	0.08	0.59	4.745e-4	0.0134	(E) Stage IIB
RO60	1q31.2	10.54	11.30	0.50	0.10	-0.76	4.767e-4	0.0134	(I) Stage IV
NOL7	6p23	9.58	9.89	0.44	0.01	-0.32	4.775e-4	0.0134	(I) Stage IV
RPL36	19p13.3	12.53	11.82	0.70	0.11	0.71	4.808e-4	0.0135	(E) Stage IIB
BMP3	4q21.21	2.14	0.20	2.17	0.28	1.94	4.867e-4	0.0136	(E) Stage IIB
SUCLG1	2p11.2	10.58	10.87	0.37	0.04	-0.29	4.884e-4	0.0136	(I) Stage IV
ABHD16A	6p21.33	10.06	10.59	0.38	0.07	-0.53	4.941e-4	0.0138	(I) Stage IV
TMEM51	1p36.21	8.40	8.00	0.54	0.04	0.40	5.044e-4	0.0140	(E) Stage IIB
LINC01140	1p22.3	5.48	4.22	1.29	0.19	1.26	5.140e-4	0.0142	(E) Stage IIB
TEF	22q13.2	8.85	9.36	0.64	0.07	-0.51	5.146e-4	0.0142	(I) Stage IV
ANO3	11p14.2	3.56	5.95	3.03	0.31	-2.40	5.214e-4	0.0143	(I) Stage IV
OSGIN1	16q23.3	6.95	7.74	1.11	0.03	-0.79	5.215e-4	0.0143	(I) Stage IV
PRRG2	19q13.33	7.37	8.11	1.04	0.05	-0.75	5.285e-4	0.0145	(I) Stage IV
RPS11	19q13.3	14.13	13.71	0.59	0.01	0.42	5.293e-4	0.0145	(E) Stage IIB
SRP68	17q25.1	10.99	11.53	0.73	0.05	-0.54	5.304e-4	0.0145	(I) Stage IV
CEP128	14q31.1	7.25	6.18	1.06	0.16	1.06	5.340e-4	0.0146	(E) Stage IIB
TSIX	Xq13.2	5.22	7.93	1.94	0.38	-2.71	5.377e-4	0.0147	(I) Stage IV
KIAA0319L	1p34.3	11.24	11.68	0.56	0.05	-0.43	5.465e-4	0.0149	(I) Stage IV
YAF2	12q12	8.19	8.52	0.44	0.03	-0.32	5.503e-4	0.0149	(I) Stage IV
PDE4B	1p31.3	9.62	8.42	1.61	0.12	1.19	5.594e-4	0.0152	(E) Stage IIB
WDR93	15q26.1	4.15	3.22	1.32	0.00	0.93	5.639e-4	0.0153	(E) Stage IIB
PPFIA4	1q32.1	4.84	7.27	1.57	0.32	-2.43	5.693e-4	0.0154	(I) Stage IV
CDC26	9q32	6.79	6.52	0.36	0.02	0.26	5.775e-4	0.0155	(E) Stage IIB
KRT32	17q21.2	2.03	4.38	1.49	0.31	-2.35	5.797e-4	0.0156	(I) Stage IV
UQCRH	1p33	10.59	10.08	0.71	0.04	0.51	5.811e-4	0.0156	(E) Stage IIB
ABLIM2	4p16.1	5.33	3.92	0.96	0.19	1.41	5.824e-4	0.0156	(E) Stage IIB
SLC9A3R1	17q25.1	12.72	14.11	1.00	0.20	-1.39	5.872e-4	0.0157	(I) Stage IV
TFEB	6p21.1	7.80	8.53	0.78	0.11	-0.72	5.874e-4	0.0157	(I) Stage IV
PTMA	2q37.1	14.17	13.61	0.50	0.09	0.56	5.972e-4	0.0159	(E) Stage IIB
CCDC3	10p13	7.86	7.14	1.01	0.05	0.72	5.990e-4	0.0159	(E) Stage IIB
FAM83B	6p12.1	6.14	7.89	2.49	0.03	-1.75	6.226e-4	0.0164	(I) Stage IV
AMMECR1	Xq23	9.03	8.38	0.80	0.09	0.65	6.260e-4	0.0165	(E) Stage IIB
CAPN5	11q13.5	7.81	6.88	1.07	0.14	0.93	6.278e-4	0.0165	(E) Stage IIB
R3HDM1	2q21.3	9.63	9.29	0.47	0.03	0.34	6.316e-4	0.0166	(E) Stage IIB
ZNF821	16q22.2	7.46	8.19	0.51	0.10	-0.73	6.424e-4	0.0168	(I) Stage IV
CHERP	19p13.11	10.24	9.88	0.40	0.06	0.36	6.440e-4	0.0168	(E) Stage IIB
HMCES	3q21.3	9.97	10.26	0.42	0.02	-0.29	6.504e-4	0.0170	(I) Stage IV
THSD7B	2q22.1	3.85	2.55	1.58	0.19	1.31	6.603e-4	0.0172	(E) Stage IIB
KL	13q13.1	4.60	3.81	1.14	0.01	0.79	6.640e-4	0.0173	(E) Stage IIB
UBE2J1	6q15	10.94	10.62	0.39	0.04	0.31	6.696e-4	0.0174	(E) Stage IIB
CTC1	17p13.1	8.77	9.99	0.60	0.14	-1.22	6.710e-4	0.0174	(I) Stage IV
LRRC8C	1p22.2	8.33	7.72	0.75	0.09	0.61	6.745e-4	0.0175	(E) Stage IIB
PARP6	15q23	9.58	10.40	0.67	0.12	-0.83	6.902e-4	0.0178	(I) Stage IV
CMC4	Xq28	7.97	7.31	0.63	0.10	0.66	6.971e-4	0.0179	(E) Stage IIB
CDHR3	7q22.3	4.08	2.23	2.30	0.27	1.85	7.057e-4	0.0181	(E) Stage IIB
WDFY1	2q36.1	10.40	9.80	0.43	0.09	0.60	7.060e-4	0.0181	(E) Stage IIB
CCDC85A	2p16.1	4.84	3.81	1.49	0.05	1.04	7.099e-4	0.0182	(E) Stage IIB
TMEM268	9q32	10.23	10.69	0.67	0.01	-0.46	7.133e-4	0.0182	(I) Stage IV
INPP5F	10q26.11	9.05	8.53	0.73	0.05	0.52	7.200e-4	0.0184	(E) Stage IIB
SLC7A10	19q13.11	1.97	0.57	1.65	0.21	1.40	7.267e-4	0.0185	(E) Stage IIB
ANKK1	11q23.2	3.08	2.09	1.44	0.03	0.99	7.302e-4	0.0186	(E) Stage IIB
ZC2HC1C	14q24.3	5.80	5.35	0.64	0.02	0.44	7.308e-4	0.0186	(E) Stage IIB
ARHGDIG	16p13.3	2.13	0.56	2.04	0.21	1.57	7.461e-4	0.0189	(E) Stage IIB
STAU1	20q13.13	11.92	12.64	0.45	0.10	-0.72	7.518e-4	0.0190	(I) Stage IV
B2M	15q21.1	15.33	16.01	0.89	0.09	-0.68	7.519e-4	0.0190	(I) Stage IV
FAM89B	11q13.1	10.25	9.64	0.85	0.07	0.62	7.650e-4	0.0193	(E) Stage IIB
TUBA3D	2q21.1	3.48	1.55	2.54	0.25	1.93	7.654e-4	0.0193	(E) Stage IIB
ADCY10	1q24.2	2.16	3.46	1.51	0.20	-1.30	7.657e-4	0.0193	(I) Stage IV
NLRX1	11q23.3	8.20	7.77	0.60	0.04	0.43	7.696e-4	0.0193	(E) Stage IIB
UCN	2p23.3	2.32	3.06	1.02	0.08	-0.73	7.709e-4	0.0193	(I) Stage IV
DIO3	14q32.31	3.39	1.97	2.00	0.14	1.42	7.734e-4	0.0194	(E) Stage IIB
CIB3	19p13.11	2.52	3.69	1.71	0.01	-1.17	7.796e-4	0.0195	(I) Stage IV
RAPGEF3	12q13.11	7.25	8.05	1.17	0.03	-0.80	7.821e-4	0.0195	(I) Stage IV
TAF12	1p35.3	8.82	8.41	0.55	0.05	0.40	7.851e-4	0.0196	(E) Stage IIB
DMAP1	1p34.1	8.59	8.26	0.46	0.04	0.33	7.871e-4	0.0196	(E) Stage IIB
PTAR1	9q21.12	9.65	9.10	0.75	0.07	0.55	7.972e-4	0.0198	(E) Stage IIB
CUTALP	9q33.2	8.95	9.53	0.73	0.08	-0.58	7.983e-4	0.0198	(I) Stage IV
GDI1	Xq28	11.94	12.31	0.54	0.00	-0.37	7.983e-4	0.0198	(I) Stage IV
FGF9	13q12.11	1.96	0.20	1.71	0.28	1.76	8.017e-4	0.0199	(E) Stage IIB
C8ORF48	8p22	3.63	2.87	1.01	0.10	0.75	8.051e-4	0.0199	(E) Stage IIB
FGF19	11q13.3	1.43	0.41	1.50	0.01	1.02	8.055e-4	0.0199	(E) Stage IIB
FAM166B	9p13.3	1.98	0.85	1.43	0.16	1.13	8.098e-4	0.0200	(E) Stage IIB
ZNF333	19p13.12	7.52	6.95	0.72	0.08	0.57	8.144e-4	0.0201	(E) Stage IIB
ZNF772	19q13.43	7.83	8.36	0.74	0.06	-0.53	8.185e-4	0.0202	(I) Stage IV
ALDH1A3	15q26.3	8.75	7.54	1.45	0.19	1.21	8.212e-4	0.0202	(E) Stage IIB
JHY	11q24.1	6.29	7.78	1.49	0.24	-1.49	8.239e-4	0.0202	(I) Stage IV
SLC22A17	14q11.2	8.76	7.98	0.94	0.12	0.78	8.252e-4	0.0203	(E) Stage IIB
FDXR	17q25.1	7.57	8.47	1.04	0.14	-0.90	8.318e-4	0.0204	(I) Stage IV
RAB9B	Xq22.2	2.68	4.38	1.37	0.26	-1.70	8.420e-4	0.0206	(I) Stage IV
FAM209B	20q13.31	1.97	2.63	0.97	0.04	-0.66	8.453e-4	0.0206	(I) Stage IV
SPTA1	1q23.1	1.79	0.98	1.19	0.02	0.81	8.485e-4	0.0207	(E) Stage IIB
DACT2	6q27	2.12	0.85	1.70	0.16	1.26	8.496e-4	0.0207	(E) Stage IIB
LINC00312	3p25.3	5.03	4.24	1.02	0.11	0.79	8.578e-4	0.0208	(E) Stage IIB
ID4	6p22.3	7.79	6.00	1.41	0.27	1.79	8.618e-4	0.0209	(E) Stage IIB
APRT	16q24.3	10.74	11.12	0.52	0.05	-0.39	8.631e-4	0.0209	(I) Stage IV
AAR2	20q11.23	10.44	11.07	0.46	0.09	-0.62	8.698e-4	0.0211	(I) Stage IV
SPDYE7P	7q11.23	2.45	3.03	0.84	0.04	-0.58	8.739e-4	0.0211	(I) Stage IV
PTGS2	1q31.1	4.93	2.95	1.59	0.30	1.98	8.746e-4	0.0211	(E) Stage IIB
PPIAL4D	1q21.1	1.14	0.72	0.62	0.02	0.42	8.766e-4	0.0211	(E) Stage IIB
PPP1R12B	1q32.1	9.60	10.05	0.65	0.03	-0.45	8.786e-4	0.0212	(I) Stage IV
DIRAS3	1p31.3	4.55	3.11	1.63	0.23	1.44	8.820e-4	0.0212	(E) Stage IIB
RPL13P5	12p13.31	3.17	4.14	0.89	0.15	-0.96	8.826e-4	0.0212	(I) Stage IV
RPS27A	2p16.1	12.78	12.55	0.34	0.02	0.24	8.867e-4	0.0213	(E) Stage IIB
ANKRD29	18q11.2	4.79	3.70	1.60	0.06	1.09	8.869e-4	0.0213	(E) Stage IIB
FAR2P1	2q21.1	5.30	7.31	2.77	0.25	-2.01	8.885e-4	0.0213	(I) Stage IV
LINC00461	5q14.3	1.96	0.20	2.02	0.28	1.76	8.911e-4	0.0213	(E) Stage IIB
PTPN6	12p13.31	9.61	10.28	0.63	0.11	-0.67	9.033e-4	0.0216	(I) Stage IV
CHMP6	17q25.3	8.39	9.04	0.58	0.10	-0.64	9.059e-4	0.0216	(I) Stage IV
POMT1	9q34.13	9.35	9.60	0.37	0.00	-0.25	9.111e-4	0.0217	(I) Stage IV
HLA-G	6p22.1	5.30	4.43	1.28	0.04	0.87	9.177e-4	0.0218	(E) Stage IIB
MTG1	10q26.3	8.57	8.92	0.52	0.01	-0.35	9.301e-4	0.0221	(I) Stage IV
SPRR1A	1q21.3	1.11	2.80	1.60	0.28	-1.69	9.401e-4	0.0223	(I) Stage IV
ISM2	14q24.3	0.81	0.41	0.60	0.01	0.40	9.427e-4	0.0223	(E) Stage IIB
FHL5	6q16.1	4.53	3.31	1.07	0.20	1.22	9.450e-4	0.0224	(E) Stage IIB
SF1	11q13.1	12.04	11.78	0.34	0.04	0.26	9.475e-4	0.0224	(E) Stage IIB
EHD4	15q15.1	10.44	9.84	0.38	0.08	0.61	9.536e-4	0.0225	(E) Stage IIB
STK17A	7p13	9.23	8.83	0.56	0.05	0.40	9.587e-4	0.0225	(E) Stage IIB
CFAP45	1q23.2	6.28	7.16	1.32	0.03	-0.89	9.587e-4	0.0225	(I) Stage IV
PDE6D	2q37.1	8.42	8.03	0.45	0.06	0.38	9.635e-4	0.0226	(E) Stage IIB
ESD	13q14.2	10.44	10.80	0.52	0.03	-0.35	9.653e-4	0.0226	(I) Stage IV
TTI1	20q11.23	9.70	10.09	0.54	0.05	-0.39	9.660e-4	0.0226	(I) Stage IV
DDX54	12q24.13	10.25	11.02	0.46	0.10	-0.77	9.758e-4	0.0228	(I) Stage IV
ZNF221	19q13.31	4.32	5.04	1.07	0.04	-0.72	9.844e-4	0.0230	(I) Stage IV
SPDEF	6p21.31	11.88	12.62	1.11	0.03	-0.74	9.872e-4	0.0230	(I) Stage IV
URAHP	16q24.3	3.95	4.74	1.01	0.12	-0.79	9.920e-4	0.0230	(I) Stage IV
SLC66A3	2p25.1	9.39	8.56	0.68	0.13	0.83	9.944e-4	0.0230	(E) Stage IIB
ZNF717	3p12.3	5.06	5.84	1.04	0.11	-0.77	9.947e-4	0.0230	(I) Stage IV
TMBIM6	12q13.12	14.67	15.30	0.36	0.08	-0.63	1.005e-3	0.0232	(I) Stage IV
VSNL1	2p24.2	5.83	4.90	1.38	0.08	0.94	1.011e-3	0.0233	(E) Stage IIB
ALOX5AP	13q12.3	7.76	8.64	1.05	0.14	-0.88	1.028e-3	0.0236	(I) Stage IV
HK3	5q35.2	5.04	6.83	1.42	0.28	-1.79	1.028e-3	0.0236	(I) Stage IV
MEIS2	15q14	6.50	5.80	1.02	0.07	0.71	1.038e-3	0.0238	(E) Stage IIB
FAM24B	10q26.13	3.46	4.22	1.09	0.09	-0.77	1.040e-3	0.0238	(I) Stage IV
ITCH	20q11.22	10.49	10.08	0.49	0.07	0.41	1.046e-3	0.0239	(E) Stage IIB
RP1	8q11.23-q12.1	3.32	0.70	2.29	0.42	2.63	1.053e-3	0.0240	(E) Stage IIB
TFPI2	7q21.3	5.14	3.22	2.20	0.32	1.92	1.058e-3	0.0241	(E) Stage IIB
SEMA6D	15q21.1	6.42	5.79	0.95	0.00	0.63	1.061e-3	0.0242	(E) Stage IIB
PIGY	4q22.1	10.55	10.29	0.39	0.01	0.26	1.063e-3	0.0242	(E) Stage IIB
SPRYD7	13q14.2	7.89	8.81	0.71	0.14	-0.92	1.073e-3	0.0243	(I) Stage IV
ST6GAL1	3q27.3	10.29	9.34	1.45	0.01	0.96	1.076e-3	0.0243	(E) Stage IIB
OIT3	10q22.1	2.20	1.09	1.32	0.18	1.10	1.076e-3	0.0243	(E) Stage IIB
GPR15	3q11.2	1.36	0.41	1.44	0.01	0.95	1.090e-3	0.0246	(E) Stage IIB
TRAF5	1q32.3	9.37	8.77	0.89	0.05	0.60	1.094e-3	0.0246	(E) Stage IIB
GLI2	2q14.2	6.09	5.17	1.04	0.15	0.92	1.098e-3	0.0247	(E) Stage IIB
SHE	1q21.3	6.99	6.15	0.88	0.14	0.84	1.099e-3	0.0247	(E) Stage IIB
GNAQ	9q21.2	11.02	10.24	0.52	0.11	0.78	1.116e-3	0.0249	(E) Stage IIB
PYY2	17q11.2	2.20	1.09	0.95	0.18	1.11	1.116e-3	0.0249	(E) Stage IIB
A2M	12p13.31	13.32	12.75	0.73	0.09	0.57	1.118e-3	0.0249	(E) Stage IIB
VAPA	18p11.22	11.65	12.02	0.56	0.00	-0.37	1.119e-3	0.0249	(I) Stage IV
GDF6	8q22.1	3.10	2.38	1.00	0.09	0.71	1.120e-3	0.0249	(E) Stage IIB
WDR41	5q13.3-q14.1	9.39	9.05	0.47	0.04	0.33	1.128e-3	0.0250	(E) Stage IIB
ANKHD1-EIF4EBP3	5q31.3	9.86	10.67	0.73	0.13	-0.81	1.157e-3	0.0256	(I) Stage IV
RPS24	10q22.3	14.03	13.57	0.66	0.05	0.45	1.162e-3	0.0257	(E) Stage IIB
CREB3	9p13.3	10.25	9.83	0.64	0.01	0.42	1.166e-3	0.0258	(E) Stage IIB
INIP	9q32	8.14	7.80	0.51	0.03	0.34	1.177e-3	0.0260	(E) Stage IIB
TAF4B	18q11.2	6.64	5.18	1.17	0.23	1.46	1.186e-3	0.0262	(E) Stage IIB
FAM13C	10q21.1	5.74	4.91	1.21	0.10	0.84	1.195e-3	0.0263	(E) Stage IIB
RNF2	1q25.3	9.27	9.70	0.60	0.06	-0.43	1.200e-3	0.0264	(I) Stage IV
S1PR1	1p21.2	8.47	7.77	0.92	0.11	0.71	1.201e-3	0.0264	(E) Stage IIB
FNDC3A	13q14.2	10.23	11.11	0.58	0.13	-0.89	1.204e-3	0.0264	(I) Stage IV
CCDC73	11p13	5.04	4.34	1.02	0.08	0.70	1.207e-3	0.0264	(E) Stage IIB
CNIH1	14q22.2	10.56	10.91	0.50	0.04	-0.35	1.208e-3	0.0264	(I) Stage IV
NOVA1	14q12	5.74	3.95	2.04	0.30	1.79	1.210e-3	0.0265	(E) Stage IIB
COL28A1	7p21.3	3.00	4.07	1.51	0.14	-1.07	1.217e-3	0.0266	(I) Stage IV
BMS1P20	22q11.22	13.15	14.53	2.12	0.04	-1.39	1.229e-3	0.0268	(I) Stage IV
RASAL1	12q24.13	5.08	3.53	2.29	0.16	1.55	1.234e-3	0.0269	(E) Stage IIB
ITIH4	3p21.1	4.68	3.38	1.99	0.04	1.30	1.243e-3	0.0270	(E) Stage IIB
ARHGAP17	16p12.1	10.13	9.74	0.40	0.07	0.40	1.250e-3	0.0271	(E) Stage IIB
PPP6R1	19q13.42	10.94	11.31	0.56	0.02	-0.37	1.250e-3	0.0271	(I) Stage IV
DSC2	18q12.1	10.53	9.71	1.03	0.13	0.82	1.251e-3	0.0271	(E) Stage IIB
ZFAT	8q24.22	7.95	8.34	0.51	0.06	-0.38	1.251e-3	0.0271	(I) Stage IV
BMP6	6p24.3	5.47	4.77	1.06	0.04	0.70	1.255e-3	0.0271	(E) Stage IIB
USP1	1p31.3	10.39	9.91	0.68	0.07	0.49	1.256e-3	0.0271	(E) Stage IIB
ZNF382	19q13.12	5.53	6.22	0.90	0.11	-0.69	1.259e-3	0.0271	(I) Stage IV
ATP6V0E2	7q36.1	10.29	11.00	0.93	0.11	-0.71	1.270e-3	0.0273	(I) Stage IV
MS4A8	11q12.2	3.50	0.37	2.79	0.52	3.13	1.272e-3	0.0273	(E) Stage IIB
HNRNPF	10q11.21	12.65	13.00	0.38	0.06	-0.35	1.289e-3	0.0276	(I) Stage IV
CBLB	3q13.11	8.89	8.51	0.43	0.07	0.38	1.296e-3	0.0277	(E) Stage IIB
EFL1	15q25.2	9.40	9.80	0.61	0.00	-0.40	1.297e-3	0.0277	(I) Stage IV
UROD	1p34.1	9.78	9.40	0.49	0.06	0.38	1.299e-3	0.0277	(E) Stage IIB
SFTPA2	10q22.3	3.95	2.67	1.93	0.12	1.28	1.304e-3	0.0277	(E) Stage IIB
MKNK1	1p33	8.83	8.40	0.49	0.07	0.42	1.306e-3	0.0277	(E) Stage IIB
MEGF6	1p36.32	8.84	8.26	0.89	0.00	0.58	1.306e-3	0.0277	(E) Stage IIB
ADGRF5	6p12.3	9.35	8.95	0.61	0.02	0.40	1.313e-3	0.0278	(E) Stage IIB
PTOV1	19q13.33	10.96	11.40	0.64	0.05	-0.44	1.322e-3	0.0279	(I) Stage IV
MBL1P	10q22.3	1.64	0.98	1.01	0.02	0.66	1.324e-3	0.0279	(E) Stage IIB
CTNNBIP1	1p36.22	9.95	9.35	0.65	0.10	0.59	1.327e-3	0.0279	(E) Stage IIB
FAM217B	20q13.33	8.09	9.11	0.80	0.16	-1.02	1.328e-3	0.0279	(I) Stage IV
SLC4A1AP	2p23.3	9.48	9.78	0.38	0.05	-0.30	1.328e-3	0.0279	(I) Stage IV
KCNC4	1p13.3	6.59	6.02	0.85	0.06	0.57	1.329e-3	0.0279	(E) Stage IIB
CEP72	5p15.33	6.06	5.19	0.73	0.14	0.87	1.330e-3	0.0279	(E) Stage IIB
MMAB	12q24.11	9.06	9.78	0.59	0.12	-0.72	1.331e-3	0.0279	(I) Stage IV
OXLD1	17q25.3	8.32	9.01	0.73	0.12	-0.69	1.335e-3	0.0279	(I) Stage IV
CKAP4	12q23.3	11.78	10.97	0.77	0.14	0.81	1.349e-3	0.0281	(E) Stage IIB
MBOAT2	2p25.1	10.29	9.45	0.81	0.14	0.84	1.367e-3	0.0285	(E) Stage IIB
CWH43	4p11	2.06	0.20	2.53	0.28	1.87	1.378e-3	0.0287	(E) Stage IIB
AKNA	9q32	8.98	8.47	0.79	0.03	0.51	1.391e-3	0.0289	(E) Stage IIB
PABPC1L	20q13.12	7.11	8.34	1.51	0.21	-1.23	1.395e-3	0.0289	(I) Stage IV
TSPAN7	Xp11.4	7.25	5.76	1.24	0.24	1.49	1.399e-3	0.0290	(E) Stage IIB
SEC14L2	22q12.2	9.10	7.97	1.70	0.11	1.12	1.415e-3	0.0292	(E) Stage IIB
EXOC7	17q25.1	11.21	11.66	0.56	0.08	-0.45	1.415e-3	0.0292	(I) Stage IV
MCF2L	13q34	9.78	8.94	1.09	0.14	0.84	1.416e-3	0.0292	(E) Stage IIB
HPS6	10q24.32	8.80	9.41	0.45	0.10	-0.61	1.444e-3	0.0298	(I) Stage IV
IL4R	16p12.1	9.70	9.16	0.85	0.01	0.55	1.448e-3	0.0298	(E) Stage IIB
TRPC5	Xq23	0.20	0.41	0.32	0.01	-0.21	1.453e-3	0.0299	(I) Stage IV
ALCAM	3q13.11	11.98	11.15	1.25	0.09	0.83	1.469e-3	0.0301	(E) Stage IIB
EXOC3	5p15.33	9.96	10.17	0.32	0.00	-0.21	1.469e-3	0.0301	(I) Stage IV
SPAG16	2q34	7.78	6.34	1.53	0.25	1.44	1.479e-3	0.0302	(E) Stage IIB
TXNL1	18q21.31	10.66	10.99	0.51	0.00	-0.33	1.481e-3	0.0303	(I) Stage IV
ERBB4	2q34	8.34	10.12	2.78	0.02	-1.78	1.490e-3	0.0304	(I) Stage IV
CACNB4	2q23.3	6.05	3.81	1.60	0.35	2.24	1.491e-3	0.0304	(E) Stage IIB
PAK3	Xq23	2.18	1.09	1.41	0.18	1.09	1.492e-3	0.0304	(E) Stage IIB
HTATSF1	Xq26.3	11.22	11.56	0.50	0.04	-0.34	1.501e-3	0.0305	(I) Stage IV
SLC1A1	9p24.2	8.46	5.81	1.92	0.41	2.65	1.504e-3	0.0306	(E) Stage IIB
RNF213	17q25.3	12.38	13.61	0.83	0.18	-1.23	1.509e-3	0.0306	(I) Stage IV
TAF7	5q31.3	11.34	11.79	0.70	0.02	-0.45	1.511e-3	0.0306	(I) Stage IV
PLD1	3q26.31	7.86	7.24	0.95	0.06	0.62	1.514e-3	0.0306	(E) Stage IIB
DPY19L2P2	7q22.1	2.58	1.48	1.60	0.15	1.10	1.522e-3	0.0308	(E) Stage IIB
MYPN	10q21.3	2.18	0.21	2.75	0.29	1.97	1.523e-3	0.0308	(E) Stage IIB
CITED1	Xq13.1	3.86	2.81	1.61	0.08	1.05	1.527e-3	0.0308	(E) Stage IIB
ZNF433	19p13.2	7.03	6.64	0.61	0.01	0.39	1.532e-3	0.0309	(E) Stage IIB
CLDN10	13q32.1	2.03	0.22	1.55	0.30	1.82	1.537e-3	0.0309	(E) Stage IIB
SERTAD1	19q13.2	8.43	8.93	0.78	0.02	-0.50	1.551e-3	0.0312	(I) Stage IV
CCL26	7q11.23	2.12	1.09	1.00	0.18	1.02	1.563e-3	0.0314	(E) Stage IIB
DNASE1L3	3p14.3	2.99	1.38	1.62	0.28	1.60	1.564e-3	0.0314	(E) Stage IIB
CTTNBP2	7q31.31	5.54	4.54	1.56	0.06	1.00	1.582e-3	0.0317	(E) Stage IIB
EVL	14q32.2	11.41	10.54	1.26	0.12	0.87	1.590e-3	0.0318	(E) Stage IIB
TMEM52	1p36.33	3.83	2.14	1.17	0.26	1.70	1.593e-3	0.0318	(E) Stage IIB
UCKL1	20q13.33	8.80	9.57	0.56	0.12	-0.78	1.624e-3	0.0324	(I) Stage IV
PON2	7q21.3	10.43	9.13	0.70	0.18	1.30	1.633e-3	0.0325	(E) Stage IIB
ACADL	2q34	1.97	0.20	2.40	0.28	1.77	1.638e-3	0.0326	(E) Stage IIB
PODXL	7q32.3	11.03	10.51	0.66	0.09	0.52	1.650e-3	0.0328	(E) Stage IIB
LRRC45	17q25.3	8.40	9.17	0.82	0.14	-0.76	1.653e-3	0.0328	(I) Stage IV
PLPP2	19p13.3	10.74	11.84	0.82	0.18	-1.10	1.657e-3	0.0329	(I) Stage IV
DIS3	13q21.33	10.01	10.45	0.59	0.07	-0.44	1.671e-3	0.0331	(I) Stage IV
NAA25	12q24.13	9.48	9.90	0.40	0.07	-0.42	1.672e-3	0.0331	(I) Stage IV
DACH1	13q21.33	8.00	10.20	2.17	0.39	-2.20	1.677e-3	0.0332	(I) Stage IV
TRIT1	1p34.2	8.32	7.84	0.46	0.08	0.48	1.677e-3	0.0332	(E) Stage IIB
SRPK2	7q22.3	10.40	10.81	0.65	0.02	-0.41	1.690e-3	0.0334	(I) Stage IV
RBM26	13q31.1	9.71	10.08	0.51	0.05	-0.36	1.697e-3	0.0335	(I) Stage IV
ZFTA	11q13.1	8.63	7.90	0.45	0.11	0.73	1.699e-3	0.0335	(E) Stage IIB
ABHD14B	3p21.2	10.32	10.91	0.76	0.10	-0.59	1.706e-3	0.0336	(I) Stage IV
SPAAR	9p13.3	3.62	2.94	1.08	0.01	0.68	1.709e-3	0.0336	(E) Stage IIB
CTSV	9q22.33	6.98	6.11	1.37	0.02	0.87	1.713e-3	0.0336	(E) Stage IIB
POM121L1P	22q11.22	0.95	1.48	0.66	0.09	-0.53	1.714e-3	0.0336	(I) Stage IV
PLA2G3	22q12.2	2.60	0.72	2.98	0.02	1.88	1.716e-3	0.0336	(E) Stage IIB
AUP1	2p13.1	11.36	11.67	0.42	0.05	-0.31	1.721e-3	0.0337	(I) Stage IV
H3-3B	17q25.1	13.71	14.19	0.74	0.04	-0.48	1.728e-3	0.0338	(I) Stage IV
VSTM2L	20q11.23	5.52	2.34	2.92	0.55	3.18	1.736e-3	0.0339	(E) Stage IIB
CES1P1	16q12.2	1.74	2.77	1.46	0.16	-1.03	1.740e-3	0.0340	(I) Stage IV
MUSTN1	3p21.1	4.04	2.90	1.38	0.20	1.15	1.742e-3	0.0340	(E) Stage IIB
SGK1	6q23.2	9.86	8.93	0.83	0.16	0.93	1.747e-3	0.0340	(E) Stage IIB
METTL7B	12q13.2	3.62	5.33	1.46	0.29	-1.71	1.748e-3	0.0340	(I) Stage IV
RIPPLY1	Xq22.3	0.80	1.39	0.94	0.03	-0.59	1.767e-3	0.0343	(I) Stage IV
SUSD2	22q11.23	9.73	6.98	1.49	0.37	2.74	1.769e-3	0.0343	(E) Stage IIB
NAV3	12q21.2	6.27	5.38	1.41	0.02	0.89	1.770e-3	0.0343	(E) Stage IIB
LARP1B	4q28.2	8.99	8.69	0.43	0.05	0.30	1.786e-3	0.0345	(E) Stage IIB
USP27X-DT	Xp11.23	4.90	5.64	0.68	0.13	-0.74	1.790e-3	0.0345	(I) Stage IV
KPTN	19q13.32	7.36	6.94	0.61	0.06	0.43	1.794e-3	0.0346	(E) Stage IIB
CCDC169	13q13.3	1.99	1.01	1.50	0.11	0.98	1.802e-3	0.0347	(E) Stage IIB
CGB7	19q13.33	0.73	1.29	0.82	0.08	-0.56	1.813e-3	0.0348	(I) Stage IV
SENP3	17p13	9.34	9.65	0.41	0.05	-0.30	1.822e-3	0.0349	(I) Stage IV
RECQL4	8q24.3	8.51	9.29	1.11	0.12	-0.78	1.823e-3	0.0349	(I) Stage IV
ARHGDIA	17q25.3	12.44	12.98	0.64	0.10	-0.54	1.826e-3	0.0349	(I) Stage IV
GSTT1	22q11.23 alternate reference locus	7.04	9.61	3.72	0.37	-2.57	1.827e-3	0.0349	(I) Stage IV
RABGAP1L	1q25.1	8.28	7.91	0.56	0.04	0.36	1.831e-3	0.0350	(E) Stage IIB
SLC2A3	12p13.31	9.13	8.42	1.13	0.03	0.71	1.838e-3	0.0351	(E) Stage IIB
UFL1	6q16.1	10.21	9.69	0.63	0.09	0.52	1.850e-3	0.0353	(E) Stage IIB
GRB14	2q24.3	4.15	1.52	3.60	0.43	2.63	1.853e-3	0.0353	(E) Stage IIB
AP1S2	Xp22.2	8.25	7.87	0.61	0.02	0.38	1.867e-3	0.0355	(E) Stage IIB
SNAP47	1q42.13	6.00	6.96	1.02	0.17	-0.96	1.869e-3	0.0355	(I) Stage IV
ZBTB4	17p13.1	10.66	11.43	0.55	0.12	-0.78	1.870e-3	0.0355	(I) Stage IV
EMCN	4q24	7.89	7.13	0.95	0.13	0.76	1.876e-3	0.0356	(E) Stage IIB
CACNB2	10p12	4.23	3.28	0.84	0.16	0.95	1.886e-3	0.0357	(E) Stage IIB
HSP90AA1	14q32.31	15.15	15.87	0.66	0.13	-0.72	1.886e-3	0.0357	(I) Stage IV
PRKACB	1p31.1	10.28	9.73	0.88	0.00	0.55	1.921e-3	0.0363	(E) Stage IIB
NVL	1q42.11	9.87	9.46	0.65	0.03	0.41	1.940e-3	0.0367	(E) Stage IIB
TMEM9B	11p15.4	10.36	10.03	0.46	0.05	0.33	1.943e-3	0.0367	(E) Stage IIB
ALG9	11q23.1	9.00	8.67	0.41	0.06	0.33	1.976e-3	0.0372	(E) Stage IIB
RPL21P44	4q12	1.23	1.71	0.77	0.03	-0.48	1.979e-3	0.0372	(I) Stage IV
MYH10	17p13.1	10.33	10.75	0.58	0.07	-0.41	1.998e-3	0.0375	(I) Stage IV
NECAB3	20q11.22	9.29	9.95	1.07	0.00	-0.67	2.009e-3	0.0376	(I) Stage IV
PCDH18	4q28.3	8.55	7.80	0.88	0.14	0.74	2.037e-3	0.0380	(E) Stage IIB
CNKSR3	6q25.2	6.93	4.67	1.19	0.31	2.26	2.045e-3	0.0381	(E) Stage IIB
FGF18	5q35.1	3.62	2.14	1.31	0.26	1.48	2.060e-3	0.0384	(E) Stage IIB
FSTL3	19p13.3	8.64	9.38	1.13	0.09	-0.74	2.089e-3	0.0389	(I) Stage IV
HEY2	6q22.31	6.95	5.70	1.52	0.23	1.25	2.101e-3	0.0390	(E) Stage IIB
RIC3	11p15.4	3.60	5.77	2.15	0.39	-2.17	2.107e-3	0.0391	(I) Stage IV
CUX2	12q24.11-q24.12	2.85	0.96	2.59	0.32	1.89	2.114e-3	0.0392	(E) Stage IIB
HPGD	4q34.1	6.59	4.61	2.71	0.34	1.99	2.127e-3	0.0394	(E) Stage IIB
ICA1L	2q33.2	6.01	5.03	1.25	0.17	0.98	2.128e-3	0.0394	(E) Stage IIB
NR4A3	9q22	5.98	4.31	1.44	0.29	1.67	2.146e-3	0.0397	(E) Stage IIB
ZBED3	5q13.3	4.62	3.84	0.81	0.14	0.79	2.162e-3	0.0399	(E) Stage IIB
MTG2	20q13.33	8.86	9.92	0.65	0.16	-1.06	2.170e-3	0.0401	(I) Stage IV
ANO4	12q23.1	1.71	0.56	1.14	0.21	1.15	2.178e-3	0.0402	(E) Stage IIB
METTL14	4q26	8.49	8.86	0.60	0.02	-0.37	2.182e-3	0.0402	(I) Stage IV
NFX1	9p12	10.25	9.82	0.46	0.08	0.43	2.191e-3	0.0403	(E) Stage IIB
CCDC88C	14q32.11-q32.12	10.09	8.60	0.90	0.22	1.50	2.192e-3	0.0403	(E) Stage IIB
RNPS1	16p13.3	11.47	11.09	0.57	0.05	0.38	2.200e-3	0.0404	(E) Stage IIB
AATK	17q25.3	5.10	4.16	1.45	0.12	0.93	2.201e-3	0.0404	(E) Stage IIB
RAB13	1q21.3	10.90	11.32	0.54	0.07	-0.42	2.205e-3	0.0404	(I) Stage IV
RNF138	18q12.1	9.06	8.63	0.67	0.05	0.43	2.212e-3	0.0405	(E) Stage IIB
FOXN3	14q31.3-q32.11	10.17	9.48	0.51	0.11	0.69	2.228e-3	0.0407	(E) Stage IIB
COLCA2	11q23.1	3.66	2.51	1.39	0.21	1.14	2.238e-3	0.0408	(E) Stage IIB
CYYR1	21q21.3	8.00	7.46	0.80	0.08	0.54	2.241e-3	0.0409	(E) Stage IIB
MYOZ2	4q26	1.17	0.41	1.25	0.01	0.77	2.256e-3	0.0410	(E) Stage IIB
ZNF439	19p13.2	6.13	6.91	1.27	0.04	-0.78	2.256e-3	0.0410	(I) Stage IV
UBE2V1	20q13.13	11.92	12.31	0.56	0.07	-0.40	2.324e-3	0.0421	(I) Stage IV
CHAC1	15q15.1	5.88	4.21	1.40	0.29	1.68	2.331e-3	0.0422	(E) Stage IIB
PNPLA8	7q31.1	9.76	9.49	0.41	0.04	0.28	2.339e-3	0.0423	(E) Stage IIB
OIP5	15q15.1	6.59	5.91	0.80	0.13	0.68	2.341e-3	0.0423	(E) Stage IIB
BBLN	9q34.11	9.31	8.73	0.70	0.11	0.58	2.342e-3	0.0423	(E) Stage IIB
KCNJ1	11q24.3	1.78	0.21	1.62	0.29	1.58	2.348e-3	0.0423	(E) Stage IIB
SNRPD3	22q11.23	10.96	10.57	0.54	0.07	0.39	2.351e-3	0.0424	(E) Stage IIB
BAZ2B	2q24.2	9.57	9.19	0.60	0.04	0.38	2.353e-3	0.0424	(E) Stage IIB
ZNF785	16p11.2	7.65	8.15	0.63	0.09	-0.49	2.365e-3	0.0425	(I) Stage IV
FHIP1A	4q31.3	7.04	8.82	1.17	0.28	-1.78	2.406e-3	0.0432	(I) Stage IV
KIF24	9p13.3	7.75	7.25	0.83	0.01	0.50	2.407e-3	0.0432	(E) Stage IIB
MESP2	15q26.1	4.49	2.01	2.19	0.44	2.48	2.409e-3	0.0432	(E) Stage IIB
EIF3CL	16p12.1	13.30	14.04	0.51	0.12	-0.74	2.419e-3	0.0433	(I) Stage IV
METTL8	2q31.1	8.62	7.94	0.54	0.12	0.68	2.430e-3	0.0434	(E) Stage IIB
C11ORF71	11q23.2	7.87	7.31	0.93	0.03	0.57	2.441e-3	0.0436	(E) Stage IIB
SNTN	3p14.2	1.76	0.21	1.66	0.29	1.56	2.461e-3	0.0439	(E) Stage IIB
ADCY2	5p15.31	5.48	3.06	2.15	0.43	2.42	2.464e-3	0.0439	(E) Stage IIB
PRRG1	Xp21.1	7.33	8.11	1.22	0.10	-0.78	2.467e-3	0.0439	(I) Stage IV
CDC42EP2	11q13.1	7.93	6.88	1.05	0.20	1.05	2.468e-3	0.0439	(E) Stage IIB
LMX1A	1q23.3	1.72	0.56	1.53	0.21	1.16	2.479e-3	0.0440	(E) Stage IIB
CERS6	2q24.3	11.74	12.31	0.93	0.04	-0.57	2.534e-3	0.0449	(I) Stage IV
CFAP119	16p11.2	5.52	6.09	0.94	0.05	-0.58	2.537e-3	0.0449	(I) Stage IV
HYAL3	3p21.31	6.60	5.69	0.91	0.17	0.90	2.539e-3	0.0449	(E) Stage IIB
LCN12	9q34.3	3.17	2.20	1.61	0.03	0.98	2.541e-3	0.0449	(E) Stage IIB
HCFC1R1	16p13.3	9.75	9.13	0.72	0.12	0.62	2.556e-3	0.0451	(E) Stage IIB
GID8	20q13.33	11.07	11.77	0.53	0.12	-0.70	2.573e-3	0.0453	(I) Stage IV
RPF1	1p22.3	9.58	9.21	0.52	0.06	0.37	2.576e-3	0.0454	(E) Stage IIB
CFTR	7q31.2	2.26	3.24	1.63	0.04	-0.98	2.600e-3	0.0457	(I) Stage IV
PPP2R1A	19q13.41	12.68	12.95	0.42	0.03	-0.26	2.611e-3	0.0459	(I) Stage IV
TMEM71	8q24.22	4.54	3.07	1.83	0.28	1.47	2.615e-3	0.0459	(E) Stage IIB
ITGA7	12q13.2	6.55	5.77	1.31	0.02	0.79	2.625e-3	0.0460	(E) Stage IIB
PKP3	11p15.5	10.09	10.46	0.58	0.05	-0.37	2.627e-3	0.0460	(I) Stage IV
USP6NL	10p14	9.16	8.67	0.66	0.09	0.49	2.651e-3	0.0463	(E) Stage IIB
KATNIP	16p12.1	9.58	9.89	0.52	0.02	-0.31	2.668e-3	0.0466	(I) Stage IV
SNHG9	16p13.3	5.64	4.46	1.18	0.22	1.18	2.668e-3	0.0466	(E) Stage IIB
TRIM55	8q13.1	1.48	0.41	1.79	0.01	1.08	2.673e-3	0.0466	(E) Stage IIB
TMEM101	17q21.31	8.12	9.06	1.48	0.12	-0.94	2.676e-3	0.0466	(I) Stage IV
ZNF595	4p16.3	7.92	8.59	0.90	0.12	-0.67	2.693e-3	0.0469	(I) Stage IV
CEMIP2	9q21.13	10.54	10.13	0.68	0.02	0.41	2.705e-3	0.0470	(E) Stage IIB
NPTX1	17q25.3	3.50	2.13	2.12	0.19	1.37	2.708e-3	0.0470	(E) Stage IIB
FCN2	9q34.3	1.70	0.20	1.91	0.28	1.50	2.720e-3	0.0472	(E) Stage IIB
SMIM32	5q31.1	1.73	0.21	1.73	0.29	1.53	2.729e-3	0.0473	(E) Stage IIB
SPCS3	4q34.2	11.52	11.10	0.48	0.08	0.41	2.735e-3	0.0473	(E) Stage IIB
GEM	8q22.1	8.79	7.63	1.33	0.22	1.15	2.739e-3	0.0474	(E) Stage IIB
PPP1R12C	19q13.42	9.27	9.78	0.70	0.09	-0.51	2.741e-3	0.0474	(I) Stage IV
PAPOLG	2p16.1	8.60	8.34	0.44	0.02	0.26	2.763e-3	0.0477	(E) Stage IIB
CADPS2	7q31.32	10.06	8.57	1.16	0.26	1.49	2.774e-3	0.0478	(E) Stage IIB
HDHD5-AS1	22q11.1	1.21	0.72	0.81	0.02	0.49	2.787e-3	0.0480	(E) Stage IIB
FAM131C	1p36.13	1.86	0.57	1.75	0.24	1.29	2.799e-3	0.0482	(E) Stage IIB
SH3GL1	19p13.3	10.80	10.43	0.53	0.06	0.37	2.812e-3	0.0483	(E) Stage IIB
DCAF4	14q24.2	8.50	7.01	0.59	0.17	1.49	2.816e-3	0.0484	(E) Stage IIB
GRIK1-AS1	21q21.3	0.83	0.41	0.70	0.01	0.42	2.834e-3	0.0486	(E) Stage IIB
CCR10	17q21.2	3.02	1.97	1.27	0.20	1.05	2.837e-3	0.0487	(E) Stage IIB
GALNT4	12q21.33	8.41	7.87	0.64	0.11	0.54	2.858e-3	0.0489	(E) Stage IIB
CHIC1	Xq13.2	7.73	8.36	0.90	0.11	-0.64	2.858e-3	0.0489	(I) Stage IV
SLC25A21	14q13.3	3.53	2.51	1.47	0.18	1.02	2.863e-3	0.0489	(E) Stage IIB
PFDN4	20q13.2	8.47	9.11	0.62	0.12	-0.64	2.882e-3	0.0491	(I) Stage IV
GNS	12q14.3	12.35	12.80	0.68	0.07	-0.45	2.883e-3	0.0491	(I) Stage IV
GALNTL6	4q34.1	1.97	1.09	1.36	0.13	0.88	2.897e-3	0.0493	(E) Stage IIB
GRIPAP1	Xp11.23	9.75	10.52	0.53	0.13	-0.76	2.909e-3	0.0495	(I) Stage IV
GPBP1L1	1p34.1	11.26	11.01	0.36	0.05	0.26	2.933e-3	0.0499	(E) Stage IIB
